# compile vhdl design source files
vhdl xil_defaultlib  \
"../../../../EMSC_Parallell_VIvado_Fix.srcs/sources_1/new/axi_gearbox.vhd" \
"../../../../EMSC_Parallell_VIvado_Fix.srcs/sources_1/new/b_ram.vhd" \
"../../../../EMSC_Parallell_VIvado_Fix.srcs/sources_1/new/register_interface.vhd" \
"../../../../EMSC_Parallell_VIvado_Fix.srcs/sources_1/new/b_ram_bank.vhd" \
"../../../../EMSC_Parallell_VIvado_Fix.srcs/sources_1/new/dot_product.vhd" \
"../../../../EMSC_Parallell_VIvado_Fix.srcs/sources_1/new/dot_product_module.vhd" \
"../../../../EMSC_Parallell_VIvado_Fix.srcs/sources_1/new/fifo.vhd" \
"../../../../EMSC_Parallell_VIvado_Fix.srcs/sources_1/new/fifo_module.vhd" \
"../../../../EMSC_Parallell_VIvado_Fix.srcs/sources_1/new/top.vhd" \

# Do not sort compile order
nosort
