# compile vhdl design source files
vhdl xil_defaultlib  \
"../../../../fifo_dot_product.srcs/sources_1/ip/mult_gen_0/sim/mult_gen_0.vhd" \
"../../../../fifo_dot_product.srcs/sources_1/new/adder.vhd" \
"../../../../fifo_dot_product.srcs/sources_1/new/dot_product_fifo.vhd" \
"../../../../fifo_dot_product.srcs/sources_1/new/top.vhd" \
"../../../../fifo_dot_product.srcs/sim_1/new/dot_product_top_tb.vhd" \

# Do not sort compile order
nosort
