# compile vhdl design source files
vhdl xil_defaultlib  \
"../../../../EMSC.srcs/sources_1/new/b_ram.vhd" \
"../../../../EMSC.srcs/sources_1/new/b_ram_bank.vhd" \
"../../../../EMSC.srcs/sim_1/new/dot_product.vhd" \
"../../../../EMSC.srcs/sources_1/new/dot_product_module.vhd" \
"../../../../EMSC.srcs/sources_1/new/EMSC_rtl.vhd" \

# Do not sort compile order
nosort
