$date
        2018-May-03 11:18:27
$end
$version
        Vivado v2017.4.1 (64-bit)
$end
$timescale
        1ps
$end
$scope module dut $end
$var reg 64 " design_1_i/top_0_m_axis_TDATA [63:0] $end
$var reg 16 b design_1_i/cubedma_top_0_m_axis_mm2s_TDATA [15:0] $end
$var reg 1 r design_1_i/cubedma_top_0_m_axis_mm2s_TLAST $end
$var reg 1 s design_1_i/cubedma_top_0_m_axis_mm2s_TREADY $end
$var reg 1 t design_1_i/cubedma_top_0_m_axis_mm2s_TVALID $end
$var reg 1 u design_1_i/cubedma_top_0_mm2s_irq $end
$var reg 1 v design_1_i/cubedma_top_0_s2mm_irq $end
$var reg 1 w design_1_i/top_0_m_axis_TLAST $end
$var reg 1 x design_1_i/top_0_m_axis_TREADY $end
$var reg 1 y design_1_i/top_0_m_axis_TVALID $end
$var reg 1 z _TRIGGER $end
$var reg 1 { _WINDOW $end
$var reg 1 | _GAP $end
$upscope $end
$enddefinitions $end
#0
$dumpvars
b0 "
b0 b
0r
1s
0t
0u
0v
0w
1x
0y
0z
1{
0|
$end
#512
b1101000111 b
1t
1z
#513
b1100001000 b
#514
b1011010010 b
#515
b1010100010 b
#516
b1001110101 b
#517
b1001001011 b
#518
b1000100011 b
#519
b1000000001 b
#520
b111100100 b
#521
b111001100 b
#522
b110110011 b
#523
b110011100 b
#524
b110000011 b
#525
b101101011 b
#526
b101010110 b
#527
b101000001 b
#528
b100101111 b
#529
b100011100 b
#530
b100001000 b
#531
b11111000 b
#532
b11101000 b
#533
b11011010 b
#534
b11001101 b
#535
b11000000 b
#536
b10110011 b
#537
b10100111 b
#538
b10011100 b
#539
b10010001 b
#540
b10000111 b
#541
b1111110 b
#542
b1110110 b
#543
b1101101 b
#544
b1100011 b
#545
b1011010 b
#546
b1010100 b
#547
b1001111 b
#548
b1001001 b
#549
b1000100 b
#550
b111111 b
#551
b111011 b
#552
b110111 b
#553
b110011 b
#554
b101111 b
#555
b101000 b
#556
b100100 b
#557
b100001 b
#558
b11111 b
#559
b11100 b
#560
b10111 b
#561
b10101 b
#562
b10010 b
#563
b1101 b
#564
b1101001011 b
#565
b1100001101 b
#566
b1011010110 b
#567
b1010100101 b
#568
b1100000101110010101111101001 "
b1001111000 b
1y
#569
b1001001010 b
#570
b1111111111111111111111111111111111110001010001010100101000011001 "
b1000100010 b
#571
b1000001011010010010101110101 "
b111111101 b
#572
b111000001000000000001010101 "
b111100001 b
#573
b1111111111111111111111111111111111111110101101100110000100101010 "
b111001010 b
#574
b1111111111111111111111111111111111111111110001111101110010100001 "
b110110100 b
0x
#575
b100101100101101101100000 "
b110011100 b
#576
b110000100 b
#577
b101101111 b
#578
b101011010 b
#579
b101000011 b
#580
b100101111 b
1x
#581
b100011101 b
#582
b1111111111111111111111111111111111110100101101010101100010001000 "
b100001001 b
#583
b0 "
b11111000 b
0y
#584
b11100110 b
#585
b11010111 b
#586
b11001100 b
#587
b10111110 b
#588
b10110010 b
#589
b10100111 b
#590
b10011100 b
#591
b10010010 b
#592
b10000111 b
#593
b1111111 b
#594
b1110111 b
#595
b1101110 b
#596
b1100011 b
#597
b1011011 b
#598
b1010101 b
#599
b1010000 b
#600
b1001011 b
#601
b1000101 b
#602
b1000000 b
#603
b111001 b
#604
b110011 b
#605
b110000 b
#606
b101100 b
#607
b101001 b
#608
b100110 b
#609
b100000 b
#610
b11011 b
#611
b11001 b
#613
b11000 b
#614
b10010 b
#615
b1011 b
#616
b1101000000 b
#617
b1100001110 b
#618
b1011011110 b
#619
b1010101010 b
#620
b1110001111101010010001101010 "
b1001111010 b
1y
#621
b1001001010 b
#622
b1111111111111111111111111111111111110001011010100000111111001100 "
b1000100100 b
#623
b1000000001011011000001110111 "
b1000000100 b
#624
b111100111001101010001100110 "
b111101001 b
#625
b1111111111111111111111111111111111111110100111100101111100110110 "
b111001111 b
#626
b1111111111111111111111111111111111111111101010100101100101100110 "
b110110011 b
#627
b100101000110110110100110 "
b110011100 b
#628
b1111111111111111111111111111111111110010001001101101011000010100 "
b110000000 b
#629
b0 "
b101101100 b
0y
#630
b101011010 b
#631
b101000100 b
#632
b100110001 b
#633
b100011011 b
#634
b100001000 b
#635
b11110111 b
#636
b11100111 b
#637
b11011001 b
#638
b11001100 b
#639
b11000000 b
#640
b10110011 b
#641
b10100110 b
#642
b10011011 b
#643
b10010001 b
#644
b10001000 b
#645
b1111111 b
#646
b1110110 b
#647
b1101101 b
#648
b1100100 b
#649
b1011101 b
#650
b1010110 b
#651
b1001111 b
#652
b1001001 b
#653
b1000010 b
#654
b111100 b
#655
b111000 b
#656
b110110 b
#657
b110011 b
#658
b101100 b
#659
b100101 b
#660
b100010 b
#661
b100001 b
#662
b11110 b
#663
b11010 b
#664
b10101 b
#665
b10011 b
#666
b10001 b
#667
b1110 b
#668
b1100111111 b
#669
b1100000111 b
#670
b1011010111 b
#671
b1010100011 b
#672
b1100101100111101000001011000 "
b1001110001 b
1y
#673
b1001000101 b
#674
b1111111111111111111111111111111111110001001100110000000000111110 "
b1000100011 b
#675
b1000001011111010011000101000 "
b1000000011 b
#676
b111001111110000011111101010 "
b111100110 b
#677
b1111111111111111111111111111111111111110101010000000001011000001 "
b111001101 b
#678
b1111111111111111111111111111111111111111110010010001111100101000 "
b110110011 b
#679
b100101001000110000101100 "
b110011001 b
#680
b1111111111111111111111111111111111110011111101100010000111110101 "
b110000010 b
#681
b0 "
b101101111 b
0y
#682
b101011010 b
#683
b101000100 b
#684
b100110001 b
#685
b100011100 b
#686
b100000110 b
#687
b11110100 b
#688
b11100101 b
#689
b11011001 b
#690
b11001100 b
#691
b10111111 b
#692
b10110100 b
#693
b10101001 b
#694
b10011111 b
#695
b10010100 b
#696
b10001010 b
#697
b10000000 b
#698
b1110110 b
#699
b1101101 b
#700
b1100100 b
#701
b1011100 b
#702
b1010101 b
#703
b1001110 b
#704
b1001000 b
#705
b1000100 b
#706
b1000000 b
#707
b111011 b
#708
b110101 b
#709
b110000 b
#710
b101100 b
#711
b101000 b
#712
b100101 b
#713
b100010 b
#714
b11110 b
#715
b11100 b
#716
b11001 b
#717
b10111 b
#718
b10100 b
#719
b1110 b
#720
b1101011110 b
#721
b1100011010 b
#722
b1011010011 b
#723
b1010100000 b
#724
b1110000000110010011110101101 "
b1001110100 b
1y
#725
b1001000100 b
#726
b1111111111111111111111111111111111110001100100000101111101110111 "
b1000011110 b
#727
b111111100111010101100111011 "
b111111110 b
#728
b111001110110111111101101111 "
b111100001 b
#729
b1111111111111111111111111111111111111110101100101010101101110001 "
b111000110 b
#730
b1111111111111111111111111111111111111111101111011011011001011101 "
b110110001 b
#731
b100000111110001111100110 "
b110011101 b
#732
b1111111111111111111111111111111111110010100101110101011000001101 "
b110000010 b
#733
b0 "
b101101011 b
0y
#734
b101011001 b
#735
b101000100 b
#736
b100110001 b
#737
b100011110 b
#738
b100001011 b
#739
b11111001 b
#740
b11100111 b
#741
b11011001 b
#742
b11001011 b
#743
b10111110 b
#744
b10110100 b
#745
b10101001 b
#746
b10011111 b
#747
b10010100 b
#748
b10001010 b
#749
b10000000 b
#750
b1110110 b
#751
b1101011 b
#752
b1100010 b
#753
b1011011 b
#754
b1010110 b
#755
b1010000 b
#756
b1001010 b
#757
b1000100 b
#758
b111101 b
#759
b110111 b
#760
b110011 b
#761
b110000 b
#762
b101101 b
#763
b101010 b
#764
b100110 b
#765
b100010 b
#766
b100000 b
#767
b11110 b
#768
b11010 b
#769
b10101 b
#770
b10010 b
#771
b1110 b
#772
b1101010101 b
#773
b1100010010 b
#774
b1011010111 b
#775
b1010100111 b
#776
b1110000100111001001011110001 "
b1001110110 b
1y
#777
b1001001010 b
#778
b1111111111111111111111111111111111110001001011001010100011111100 "
b1000100100 b
#779
b1000001101100001010011100100 "
b1000000010 b
#780
b111111101001110011100010110 "
b111100010 b
#781
b1111111111111111111111111111111111111110101000101011100010101001 "
b111000110 b
#782
b1111111111111111111111111111111111111111100111101101101010010100 "
b110101110 b
#783
b101000111001111001111111 "
b110011000 b
#784
b1111111111111111111111111111111111110010000010010101100011101000 "
b110000001 b
#785
b0 "
b101101100 b
0y
#786
b101011001 b
#787
b101000110 b
#788
b100110010 b
#789
b100011100 b
#790
b100000111 b
#791
b11110101 b
#792
b11100111 b
#793
b11011010 b
#794
b11001100 b
#795
b11000000 b
#796
b10110100 b
#797
b10101001 b
#798
b10011101 b
#799
b10010010 b
#800
b10001001 b
#801
b10000001 b
#802
b1111001 b
#803
b1101110 b
#804
b1100101 b
#805
b1011101 b
#806
b1010111 b
#807
b1001111 b
#808
b1001001 b
#809
b1000011 b
#810
b111111 b
#811
b111011 b
#812
b110110 b
#813
b110000 b
#814
b101011 b
#815
b101000 b
#817
b100010 b
#818
b11111 b
#819
b11100 b
#820
b11000 b
#821
b10100 b
#822
b10000 b
#823
b1101 b
#824
b1101010000 b
#825
b1100001010 b
#826
b1011001110 b
#827
b1010011101 b
#828
b1110010011100101011000001100 "
b1001110110 b
1y
#829
b1001001100 b
#830
b1111111111111111111111111111111111110001001000011101011001101000 "
b1000100110 b
#831
b1000001100000001101101100000 "
b1000000010 b
#832
b1000001000010000111000010111 "
b111100100 b
#833
b1111111111111111111111111111111111111110100010110000000010111010 "
b111001011 b
#834
b1111111111111111111111111111111111111111101111010000000000000111 "
b110110011 b
#835
b101001000011110000000001 "
b110011011 b
#836
b1111111111111111111111111111111111110001101000101100011001011101 "
b110000100 b
#837
b0 "
b101101111 b
0y
#838
b101011001 b
#839
b101000001 b
#840
b100101101 b
#841
b100011100 b
#842
b100001011 b
#843
b11111011 b
#844
b11101011 b
#845
b11011011 b
#846
b11001101 b
#847
b11000001 b
#848
b10110101 b
#849
b10101001 b
#850
b10011100 b
#851
b10010001 b
#852
b10001010 b
#853
b10000010 b
#854
b1111000 b
#855
b1101101 b
#856
b1100101 b
#857
b1011110 b
#858
b1010110 b
#859
b1010000 b
#860
b1001010 b
#861
b1000011 b
#862
b111101 b
#863
b111001 b
#864
b110101 b
#865
b110000 b
#866
b101100 b
#867
b101000 b
#868
b100110 b
#869
b100011 b
#870
b11110 b
#871
b11011 b
#872
b11010 b
#873
b11001 b
#874
b10100 b
#875
b1111 b
#876
b1101001001 b
#877
b1100001100 b
#878
b1011010111 b
#879
b1010100100 b
#880
b1100100001011101100010010111 "
b1001110101 b
1y
#881
b1001000101 b
#882
b1111111111111111111111111111111111110001010100010111010101111011 "
b1000100101 b
#883
b1000001001100010101011101011 "
b1000000101 b
#884
b111000110000101100011100000 "
b111100101 b
#885
b1111111111111111111111111111111111111110101111100111111110010111 "
b111000111 b
#886
b1111111111111111111111111111111111111111101110110001100100101001 "
b110101110 b
#887
b100011110011001011111000 "
b110011001 b
#888
b1111111111111111111111111111111111110100001110110101101110010111 "
b110000010 b
#889
b0 "
b101101101 b
0y
#890
b101010111 b
#891
b101000001 b
#892
b100101111 b
#893
b100011100 b
#894
b100001001 b
#895
b11111001 b
#896
b11101001 b
#897
b11011010 b
#898
b11001100 b
#899
b11000000 b
#900
b10110100 b
#901
b10101001 b
#902
b10011110 b
#903
b10010010 b
#904
b10001001 b
#905
b10000001 b
#906
b1111000 b
#907
b1101101 b
#908
b1100100 b
#909
b1011100 b
#910
b1010100 b
#911
b1010000 b
#912
b1001010 b
#913
b1000101 b
#914
b1000000 b
#915
b111011 b
#916
b110101 b
#917
b110000 b
#918
b101011 b
#919
b100111 b
#920
b100100 b
#921
b100001 b
#922
b11101 b
#923
b11001 b
#924
b10111 b
#926
b10011 b
#927
b10000 b
#928
b1101010001 b
#929
b1100001110 b
#930
b1011010011 b
#931
b1010011111 b
#932
b1100110010100110111101000000 "
b1001110011 b
1y
#933
b1001001010 b
#934
b1111111111111111111111111111111111110001001100110100101001001011 "
b1000100100 b
#935
b1000001100011001011010101000 "
b1000000011 b
#936
b111011110010011100110000100 "
b111100100 b
#937
b1111111111111111111111111111111111111110101010101100001000111100 "
b111001001 b
#938
b1111111111111111111111111111111111111111110000011101111011110100 "
b110110010 b
#939
b100101100110000101111010 "
b110011010 b
#940
b1111111111111111111111111111111111110011101010101101111110101011 "
b110000010 b
#941
b0 "
b101101101 b
0y
#942
b101011010 b
#943
b101000110 b
#944
b100110011 b
#945
b100011101 b
#946
b100001010 b
#947
b11110111 b
#948
b11100110 b
#949
b11011000 b
#950
b11001100 b
#951
b11000001 b
#952
b10110101 b
#953
b10101010 b
#954
b10011111 b
#955
b10010011 b
#956
b10001000 b
#957
b1111110 b
#958
b1110110 b
#959
b1101101 b
#960
b1100100 b
#961
b1011101 b
#962
b1010110 b
#963
b1010000 b
#964
b1001010 b
#965
b1000110 b
#966
b1000000 b
#967
b111001 b
#968
b110101 b
#969
b110000 b
#970
b101011 b
#971
b101001 b
#972
b100110 b
#973
b100011 b
#974
b100000 b
#975
b11100 b
#976
b11001 b
#977
b10110 b
#978
b10001 b
#979
b1110 b
#980
b1101001100 b
#981
b1100001110 b
#982
b1011010110 b
#983
b1010100101 b
#984
b1110011011100000101000000110 "
b1001110111 b
1y
#985
b1001001010 b
#986
b1111111111111111111111111111111111110001011000001111110101100101 "
b1000100011 b
#987
b1000000010111100010100111010 "
b1000000001 b
#988
b111110000000111101101010011 "
b111100111 b
#989
b1111111111111111111111111111111111111110101000000000001110011111 "
b111001100 b
#990
b1111111111111111111111111111111111111111101101000111010100100101 "
b110110010 b
#991
b100110110110110010000010 "
b110011010 b
#992
b1111111111111111111111111111111111110001110001001011011011101111 "
b110000001 b
#993
b0 "
b101101100 b
0y
#994
b101011001 b
#995
b101000101 b
#996
b100110010 b
#997
b100011110 b
#998
b100001011 b
#999
b11111001 b
#1000
b11101001 b
#1001
b11011011 b
#1002
b11001101 b
#1003
b11000010 b
#1004
b10110101 b
#1005
b10101001 b
#1006
b10011111 b
#1007
b10010101 b
#1008
b10001011 b
#1009
b10000000 b
#1010
b1110110 b
#1011
b1101100 b
#1012
b1100010 b
#1013
b1011010 b
#1014
b1010100 b
#1015
b1001111 b
#1016
b1001010 b
#1017
b1000111 b
#1018
b1000000 b
#1019
b111000 b
#1020
b110100 b
#1021
b110010 b
#1022
b101111 b
#1023
b101011 b
