2.953198
2.946021
2.939065
2.932518
2.926265
2.920505
2.915254
2.910352
2.905928
2.901903
2.898110
2.894428
2.890660
2.886900
2.883368
2.880086
2.877372
2.875433
2.874589
2.874887
2.876163
2.878292
2.881108
2.884350
2.887842
2.891251
2.894358
2.896877
2.898443
2.898439
2.896513
2.892420
2.886118
2.877885
2.868275
2.857908
2.847451
2.837323
2.827723
2.818807
2.810516
2.802807
2.795559
2.788786
2.782431
2.776650
2.771616
2.767492
2.764456
2.762612
2.762026
2.762739
2.764563
2.767341
2.770901
2.774965
2.779468
2.784342
2.789567
2.795120
2.800985
2.807090
2.813507
2.820083
2.826693
2.833241
2.839635
2.845746
2.851433
2.856598
2.861174
2.865150
2.868701
2.872180
2.875823
2.879818
2.884557
2.890593
2.898151
2.907068
2.916775
2.926506
2.935453
2.942619
2.947380
2.949362
2.948782
2.946150
2.941821
2.936215
2.929680
2.922553
2.914918
2.906727
2.898122
2.889193
2.880154
2.871006
2.861649
2.851730
2.953285
2.946116
2.939209
2.932609
2.926413
2.920658
2.915386
2.910565
2.906144
2.902071
2.898246
2.894551
2.890878
2.887179
2.883622
2.880359
2.877648
2.875769
2.874888
2.875097
2.876349
2.878504
2.881358
2.884666
2.888136
2.891571
2.894678
2.897125
2.898584
2.898610
2.896715
2.892599
2.886223
2.877932
2.868334
2.858066
2.847659
2.837518
2.827903
2.818947
2.810649
2.802940
2.795686
2.788856
2.782497
2.776717
2.771677
2.767548
2.764511
2.762688
2.762086
2.762734
2.764572
2.767403
2.770958
2.775004
2.779494
2.784391
2.789625
2.795210
2.801100
2.807255
2.813628
2.820153
2.826771
2.833359
2.839781
2.845881
2.851529
2.856599
2.861107
2.865122
2.868743
2.872181
2.875697
2.879700
2.884600
2.890749
2.898374
2.907341
2.917072
2.926771
2.935574
2.942678
2.947383
2.949375
2.948772
2.946000
2.941606
2.936083
2.929771
2.922657
2.914893
2.906649
2.898110
2.889337
2.880385
2.871309
2.861903
2.851994
2.954453
2.947039
2.939980
2.933417
2.927306
2.921525
2.916049
2.911053
2.906630
2.902686
2.898913
2.895091
2.891243
2.887530
2.884072
2.880930
2.878193
2.876142
2.875084
2.875290
2.876631
2.878843
2.881641
2.884822
2.888308
2.891865
2.895117
2.897663
2.899099
2.899123
2.897389
2.893522
2.887317
2.879015
2.869267
2.858884
2.848514
2.838474
2.828924
2.819874
2.811381
2.803537
2.796323
2.789556
2.783200
2.777299
2.772100
2.767866
2.764796
2.762977
2.762379
2.762952
2.764671
2.767462
2.771060
2.775198
2.779679
2.784467
2.789637
2.795257
2.801255
2.807455
2.813762
2.820210
2.826819
2.833479
2.840024
2.846211
2.851818
2.856857
2.861373
2.865457
2.869189
2.872699
2.876169
2.880050
2.884804
2.890852
2.898327
2.907094
2.916679
2.926369
2.935267
2.942528
2.947399
2.949498
2.948948
2.946263
2.942042
2.936595
2.930185
2.923062
2.915366
2.907186
2.898609
2.889775
2.880747
2.871591
2.862219
2.852379
2.956320
2.949059
2.942067
2.935420
2.929167
2.923364
2.918050
2.913185
2.908747
2.904673
2.900786
2.896997
2.893258
2.889560
2.885987
2.882680
2.879919
2.877927
2.876915
2.877026
2.878189
2.880277
2.883046
2.886254
2.889756
2.893269
2.896443
2.898983
2.900533
2.900692
2.898971
2.895060
2.888847
2.880624
2.870994
2.860653
2.850193
2.839994
2.830298
2.821244
2.812864
2.805050
2.797718
2.790817
2.784377
2.778530
2.773428
2.769205
2.766051
2.764064
2.763363
2.763916
2.765654
2.768406
2.771884
2.775931
2.780406
2.785250
2.790454
2.796016
2.801901
2.808004
2.814347
2.820886
2.827514
2.834101
2.840505
2.846622
2.852285
2.857397
2.861964
2.866039
2.869698
2.873135
2.876604
2.880510
2.885226
2.891161
2.898590
2.907357
2.917021
2.926769
2.935751
2.943122
2.948080
2.950325
2.949891
2.947247
2.942956
2.937484
2.931130
2.924034
2.916327
2.908098
2.899433
2.890531
2.881526
2.872400
2.863016
2.853126
2.957766
2.950488
2.943457
2.936759
2.930445
2.924578
2.919181
2.914260
2.909760
2.905662
2.901813
2.898055
2.894305
2.890576
2.886967
2.883643
2.880836
2.878809
2.877736
2.877797
2.878892
2.880933
2.883688
2.886911
2.890412
2.893901
2.897069
2.899652
2.901296
2.901540
2.899909
2.896088
2.889963
2.881837
2.872266
2.861914
2.851419
2.841183
2.831468
2.822385
2.813907
2.806028
2.798683
2.791775
2.785313
2.779372
2.774185
2.769898
2.766692
2.764682
2.763928
2.764438
2.766108
2.768853
2.772344
2.776362
2.780790
2.785578
2.790777
2.796327
2.802179
2.808277
2.814587
2.821100
2.827711
2.834322
2.840793
2.846969
2.852642
2.857799
2.862402
2.866498
2.870166
2.873589
2.877040
2.880856
2.885479
2.891331
2.898640
2.907332
2.916938
2.926688
2.935712
2.943159
2.948318
2.950744
2.950504
2.947956
2.943682
2.938188
2.931799
2.924686
2.916964
2.908731
2.900072
2.891101
2.882013
2.872813
2.863354
2.853461
2.955346
2.948102
2.941126
2.934480
2.928225
2.922425
2.917107
2.912240
2.907796
2.903700
2.899834
2.896096
2.892393
2.888681
2.885064
2.881753
2.878997
2.877057
2.876086
2.876211
2.877378
2.879438
2.882207
2.885448
2.888920
2.892369
2.895514
2.898055
2.899662
2.899827
2.898084
2.894135
2.887915
2.879730
2.870152
2.859821
2.849347
2.839156
2.829487
2.820485
2.812125
2.804348
2.797069
2.790220
2.783812
2.777973
2.772887
2.768707
2.765577
2.763603
2.762915
2.763509
2.765284
2.768031
2.771524
2.775550
2.780030
2.784914
2.790166
2.795728
2.801581
2.807682
2.814017
2.820538
2.827146
2.833733
2.840147
2.846241
2.851916
2.857068
2.861649
2.865714
2.869347
2.872815
2.876300
2.880226
2.885025
2.891025
2.898480
2.907275
2.916988
2.926786
2.935690
2.942911
2.947812
2.950035
2.949602
2.946951
2.942628
2.937110
2.930702
2.923621
2.915948
2.907677
2.898999
2.890060
2.880997
2.871796
2.862335
2.852419
2.953196
2.946019
2.939088
2.932452
2.926204
2.920455
2.915207
2.910403
2.905978
2.901898
2.898101
2.894427
2.890721
2.886993
2.883407
2.880168
2.877568
2.875747
2.874869
2.875024
2.876246
2.878393
2.881261
2.884572
2.888070
2.891499
2.894617
2.897118
2.898601
2.898580
2.896593
2.892432
2.886078
2.877781
2.868152
2.857857
2.847470
2.837395
2.827837
2.818903
2.810601
2.802850
2.795589
2.788755
2.782398
2.776622
2.771585
2.767440
2.764347
2.762513
2.761968
2.762693
2.764533
2.767321
2.770843
2.774930
2.779466
2.784367
2.789617
2.795180
2.801046
2.807200
2.813599
2.820156
2.826772
2.833321
2.839720
2.845816
2.851477
2.856593
2.861120
2.865114
2.868719
2.872207
2.875755
2.879703
2.884532
2.890686
2.898346
2.907286
2.916962
2.926646
2.935482
2.942553
2.947242
2.949273
2.948699
2.945933
2.941537
2.936024
2.929687
2.922635
2.914950
2.906734
2.898139
2.889318
2.880348
2.871208
2.861787
2.851889
2.953877
2.946621
2.939675
2.933069
2.926810
2.920985
2.915662
2.910843
2.906443
2.902365
2.898500
2.894771
2.891057
2.887353
2.883760
2.880485
2.877762
2.875848
2.874923
2.875111
2.876332
2.878462
2.881271
2.884545
2.888060
2.891575
2.894776
2.897288
2.898809
2.898919
2.897171
2.893194
2.886913
2.878652
2.869015
2.858708
2.848261
2.838093
2.828451
2.819458
2.811076
2.803303
2.796032
2.789200
2.782797
2.776971
2.771888
2.767709
2.764620
2.762760
2.762147
2.762764
2.764545
2.767356
2.770925
2.775013
2.779493
2.784354
2.789613
2.795226
2.801151
2.807342
2.813721
2.820230
2.826837
2.833435
2.839879
2.845994
2.851638
2.856785
2.861339
2.865383
2.869008
2.872445
2.875979
2.879925
2.884741
2.890759
2.898233
2.907005
2.916652
2.926415
2.935310
2.942485
2.947265
2.949346
2.948844
2.946151
2.941838
2.936347
2.929981
2.922916
2.915215
2.907010
2.898412
2.889570
2.880574
2.871463
2.862071
2.852190
2.956193
2.948956
2.941961
2.935314
2.929054
2.923214
2.917855
2.912983
2.908519
2.904418
2.900573
2.896863
2.893156
2.889420
2.885813
2.882538
2.879775
2.877823
2.876845
2.876973
2.878082
2.880090
2.882888
2.886179
2.889690
2.893135
2.896288
2.898833
2.900406
2.900555
2.898821
2.894871
2.888628
2.880442
2.870900
2.860610
2.850137
2.839900
2.830195
2.821148
2.812774
2.804987
2.797676
2.790765
2.784303
2.778444
2.773322
2.769096
2.765921
2.763965
2.763269
2.763825
2.765586
2.768350
2.771856
2.775878
2.780323
2.785185
2.790399
2.795963
2.801823
2.807939
2.814287
2.820785
2.827416
2.834047
2.840479
2.846579
2.852222
2.857360
2.861966
2.866035
2.869708
2.873137
2.876595
2.880480
2.885204
2.891146
2.898533
2.907286
2.916961
2.926701
2.935640
2.942964
2.947967
2.950253
2.949874
2.947283
2.942989
2.937486
2.931109
2.924034
2.916310
2.908012
2.899336
2.890443
2.881438
2.872322
2.862916
2.853007
2.957391
2.950082
2.943088
2.936457
2.930209
2.924359
2.918948
2.914002
2.909550
2.905454
2.901607
2.897833
2.894070
2.890343
2.886716
2.883361
2.880549
2.878573
2.877582
2.877664
2.878738
2.880750
2.883510
2.886762
2.890258
2.893758
2.896964
2.899516
2.901097
2.901306
2.899707
2.895890
2.889733
2.881525
2.871919
2.861605
2.851118
2.840885
2.831132
2.822003
2.813537
2.805689
2.798393
2.791518
2.785069
2.779191
2.774035
2.769769
2.766560
2.764552
2.763833
2.764361
2.766063
2.768765
2.772224
2.776227
2.780701
2.785557
2.790781
2.796322
2.802154
2.808259
2.814593
2.821086
2.827690
2.834287
2.840695
2.846816
2.852470
2.857655
2.862275
2.866336
2.869989
2.873409
2.876903
2.880787
2.885445
2.891294
2.898583
2.907343
2.917061
2.926865
2.935894
2.943276
2.948340
2.950652
2.950291
2.947732
2.943451
2.937951
2.931567
2.924505
2.916826
2.908555
2.899859
2.890938
2.881916
2.872734
2.863289
2.853377
2.953312
2.946077
2.939087
2.932452
2.926287
2.920591
2.915298
2.910439
2.906019
2.901982
2.898140
2.894393
2.890710
2.887071
2.883490
2.880178
2.877412
2.875538
2.874629
2.874783
2.875974
2.878094
2.880914
2.884144
2.887642
2.891069
2.894156
2.896627
2.898152
2.898219
2.896403
2.892364
2.886133
2.877913
2.868278
2.857941
2.847530
2.837426
2.827800
2.818867
2.810590
2.802862
2.795621
2.788806
2.782470
2.776731
2.771704
2.767597
2.764540
2.762678
2.762060
2.762746
2.764592
2.767406
2.770935
2.775013
2.779484
2.784339
2.789526
2.795118
2.801043
2.807164
2.813485
2.820018
2.826667
2.833296
2.839674
2.845758
2.851375
2.856502
2.861047
2.865102
2.868779
2.872211
2.875735
2.879667
2.884480
2.890516
2.898080
2.907003
2.916749
2.926553
2.935491
2.942623
2.947372
2.949505
2.949058
2.946351
2.941911
2.936345
2.929924
2.922824
2.915088
2.906776
2.898108
2.889189
2.880073
2.870827
2.861263
2.851315
2.949811
2.942596
2.935684
2.929258
2.923266
2.917709
2.912446
2.907586
2.903208
2.899305
2.895599
2.891901
2.888113
2.884401
2.880978
2.877865
2.875298
2.873423
2.872586
2.872953
2.874381
2.876630
2.879514
2.882789
2.886217
2.889638
2.892744
2.895115
2.896409
2.896149
2.894044
2.889743
2.883184
2.874789
2.865126
2.854858
2.844573
2.834594
2.825204
2.816401
2.808147
2.800447
2.793254
2.786536
2.780287
2.774609
2.769668
2.765661
2.762782
2.761125
2.760717
2.761491
2.763322
2.766215
2.769888
2.774072
2.778580
2.783429
2.788679
2.794332
2.800333
2.806509
2.812892
2.819352
2.825925
2.832541
2.838987
2.845045
2.850557
2.855556
2.860059
2.864095
2.867732
2.871200
2.874740
2.878848
2.883925
2.890320
2.898190
2.907203
2.916942
2.926574
2.935258
2.942102
2.946471
2.948257
2.947488
2.944663
2.940252
2.934719
2.928346
2.921215
2.913536
2.905294
2.896748
2.887975
2.879042
2.869885
2.860347
2.850404
2.948472
2.941381
2.934628
2.928204
2.922126
2.916479
2.911268
2.906591
2.902326
2.898330
2.894521
2.890799
2.887116
2.883463
2.879934
2.876772
2.874220
2.872451
2.871646
2.871938
2.873291
2.875563
2.878487
2.881781
2.885207
2.888588
2.891598
2.893979
2.895297
2.895119
2.893028
2.888703
2.882168
2.873762
2.864119
2.853907
2.843650
2.833704
2.824282
2.815550
2.807442
2.799791
2.792545
2.785728
2.779487
2.773909
2.769114
2.765157
2.762210
2.760510
2.760101
2.760988
2.762958
2.765832
2.769415
2.773486
2.778025
2.782969
2.788305
2.793991
2.799949
2.806094
2.812419
2.818949
2.825583
2.832188
2.838595
2.844635
2.850211
2.855233
2.859732
2.863724
2.867350
2.870851
2.874497
2.878638
2.883664
2.890014
2.897870
2.906984
2.916733
2.926384
2.935076
2.941900
2.946307
2.948076
2.947247
2.944278
2.939820
2.934309
2.927890
2.920722
2.913072
2.904886
2.896282
2.887354
2.878357
2.869155
2.859595
2.849645
2.951466
2.944338
2.937429
2.930801
2.924571
2.918813
2.913477
2.908654
2.904217
2.900222
2.896517
2.892868
2.889145
2.885383
2.881778
2.878546
2.875801
2.873908
2.873011
2.873195
2.874408
2.876550
2.879422
2.882669
2.886078
2.889558
2.892776
2.895318
2.896843
2.896868
2.895086
2.891104
2.884839
2.876607
2.866988
2.856666
2.846332
2.836203
2.826549
2.817626
2.809386
2.801690
2.794422
2.787581
2.781306
2.775664
2.770690
2.766578
2.763479
2.761638
2.761087
2.761819
2.763690
2.766530
2.770136
2.774237
2.778731
2.783601
2.788855
2.794492
2.800413
2.806594
2.812992
2.819519
2.826112
2.832720
2.839185
2.845292
2.850941
2.856064
2.860679
2.864728
2.868401
2.871880
2.875374
2.879320
2.884097
2.890200
2.897729
2.906578
2.916211
2.925913
2.934789
2.941940
2.946795
2.948884
2.948350
2.945599
2.941235
2.935700
2.929228
2.922058
2.914346
2.906126
2.897403
2.888344
2.879171
2.870000
2.860602
2.850671
2.954151
2.946889
2.939937
2.933246
2.926950
2.921101
2.915731
2.910830
2.906386
2.902277
2.898460
2.894798
2.891120
2.887367
2.883766
2.880402
2.877572
2.875500
2.874408
2.874480
2.875575
2.877575
2.880312
2.883544
2.886977
2.890496
2.893799
2.896527
2.898222
2.898547
2.897056
2.893422
2.887390
2.879294
2.869797
2.859531
2.849081
2.838805
2.828992
2.819885
2.811438
2.803646
2.796369
2.789498
2.783087
2.777216
2.772078
2.767865
2.764692
2.762730
2.762005
2.762561
2.764330
2.767133
2.770696
2.774767
2.779265
2.784151
2.789418
2.794980
2.800871
2.807025
2.813435
2.820022
2.826704
2.833358
2.839867
2.846033
2.851795
2.856949
2.861544
2.865642
2.869382
2.872848
2.876278
2.880027
2.884531
2.890293
2.897533
2.906235
2.915789
2.925598
2.934651
2.942062
2.947201
2.949551
2.949360
2.946806
2.942468
2.936894
2.930472
2.923402
2.915663
2.907304
2.898536
2.889444
2.880273
2.871018
2.861518
2.851561
2.953075
2.945901
2.939015
2.932416
2.926171
2.920422
2.915188
2.910386
2.905939
2.901849
2.898016
2.894324
2.890651
2.886965
2.883408
2.880153
2.877422
2.875517
2.874600
2.874792
2.875984
2.878089
2.880852
2.884089
2.887554
2.891035
2.894161
2.896617
2.898103
2.898151
2.896273
2.892219
2.885937
2.877702
2.868112
2.857826
2.847437
2.837338
2.827707
2.818751
2.810456
2.802721
2.795506
2.788720
2.782439
2.776722
2.771715
2.767570
2.764458
2.762597
2.762024
2.762712
2.764549
2.767357
2.770894
2.774986
2.779494
2.784319
2.789502
2.795041
2.800951
2.807107
2.813428
2.819973
2.826633
2.833271
2.839675
2.845743
2.851408
2.856526
2.861061
2.865065
2.868702
2.872156
2.875657
2.879630
2.884474
2.890558
2.898112
2.906996
2.916723
2.926543
2.935438
2.942607
2.947409
2.949522
2.949067
2.946305
2.941863
2.936334
2.929894
2.922778
2.915019
2.906700
2.897987
2.889040
2.880002
2.870806
2.861285
2.851293
2.949492
2.942420
2.935585
2.929108
2.923002
2.917330
2.912157
2.907430
2.903102
2.899115
2.895318
2.891610
2.887943
2.884290
2.880750
2.877605
2.875031
2.873260
2.872496
2.872823
2.874148
2.876355
2.879181
2.882511
2.886057
2.889474
2.892501
2.894825
2.896167
2.895974
2.893889
2.889587
2.883053
2.874588
2.864916
2.854698
2.844388
2.834389
2.824972
2.816240
2.808041
2.800294
2.793039
2.786329
2.780125
2.774451
2.769515
2.765558
2.762695
2.761048
2.760592
2.761393
2.763311
2.766210
2.769852
2.773949
2.778433
2.783302
2.788634
2.794329
2.800223
2.806356
2.812723
2.819314
2.825943
2.832489
2.838867
2.844936
2.850529
2.855534
2.859970
2.863969
2.867651
2.871118
2.874707
2.878843
2.883908
2.890263
2.898027
2.907074
2.916832
2.926546
2.935287
2.942108
2.946513
2.948314
2.947600
2.944649
2.940092
2.934564
2.928172
2.921065
2.913357
2.905184
2.896650
2.887783
2.878798
2.869683
2.860325
2.850409
2.948403
2.941334
2.934527
2.927986
2.921883
2.916266
2.911086
2.906367
2.902023
2.898024
2.894292
2.890609
2.886936
2.883234
2.879667
2.876507
2.874015
2.872320
2.871565
2.871804
2.873117
2.875385
2.878351
2.881687
2.885174
2.888566
2.891605
2.893966
2.895286
2.895110
2.892980
2.888650
2.882096
2.873736
2.864098
2.853867
2.843548
2.833598
2.824195
2.815465
2.807312
2.799667
2.792420
2.785648
2.779377
2.773739
2.768901
2.764970
2.762068
2.760354
2.759938
2.760793
2.762777
2.765645
2.769263
2.773438
2.778037
2.782991
2.788278
2.793896
2.799791
2.805985
2.812443
2.818984
2.825578
2.832119
2.838528
2.844616
2.850223
2.855277
2.859741
2.863702
2.867315
2.870890
2.874546
2.878646
2.883618
2.889940
2.897798
2.906904
2.916663
2.926266
2.934932
2.941766
2.946191
2.947830
2.947003
2.944118
2.939650
2.934119
2.927754
2.920733
2.913029
2.904778
2.896166
2.887355
2.878416
2.869231
2.859711
2.849710
2.951381
2.944236
2.937368
2.930758
2.924518
2.918764
2.913516
2.908755
2.904283
2.900172
2.896385
2.892772
2.889146
2.885417
2.881808
2.878495
2.875765
2.873887
2.872994
2.873188
2.874415
2.876545
2.879380
2.882600
2.886017
2.889489
2.892700
2.895258
2.896793
2.896871
2.895057
2.891059
2.884766
2.876552
2.866985
2.856696
2.846264
2.836136
2.826570
2.817661
2.809379
2.801661
2.794410
2.787621
2.781299
2.775575
2.770615
2.766508
2.763446
2.761590
2.761047
2.761804
2.763680
2.766528
2.770084
2.774186
2.778737
2.783630
2.788879
2.794465
2.800379
2.806617
2.813029
2.819551
2.826182
2.832786
2.839226
2.845255
2.850905
2.856047
2.860630
2.864655
2.868316
2.871822
2.875377
2.879310
2.884072
2.890118
2.897637
2.906531
2.916256
2.926003
2.934914
2.942037
2.946811
2.948881
2.948318
2.945583
2.941161
2.935592
2.929184
2.922096
2.914360
2.906038
2.897312
2.888370
2.879269
2.870032
2.860550
2.850599
2.954002
2.946738
2.939780
2.933205
2.926892
2.920970
2.915573
2.910732
2.906328
2.902208
2.898322
2.894631
2.890937
2.887213
2.883606
2.880256
2.877409
2.875365
2.874307
2.874309
2.875347
2.877343
2.880150
2.883491
2.886974
2.890462
2.893657
2.896267
2.898013
2.898431
2.897012
2.893359
2.887335
2.879272
2.869779
2.859503
2.848990
2.838703
2.828933
2.819842
2.811383
2.803570
2.796299
2.789474
2.783076
2.777210
2.772013
2.767726
2.764525
2.762585
2.761897
2.762476
2.764245
2.767096
2.770630
2.774645
2.779160
2.784054
2.789362
2.794967
2.800850
2.807004
2.813390
2.820035
2.826729
2.833339
2.839793
2.845958
2.851713
2.856918
2.861569
2.865685
2.869367
2.872820
2.876238
2.879998
2.884510
2.890237
2.897472
2.906165
2.915757
2.925475
2.934448
2.941993
2.947240
2.949582
2.949198
2.946614
2.942392
2.936898
2.930524
2.923421
2.915656
2.907259
2.898440
2.889460
2.880285
2.871040
2.861397
2.851402
2.763697
2.758159
2.752835
2.747768
2.743061
2.738780
2.734929
2.731487
2.728414
2.725717
2.723325
2.721099
2.718969
2.716924
2.715039
2.713496
2.712466
2.712188
2.712779
2.714337
2.716874
2.720241
2.724277
2.728781
2.733538
2.738368
2.743013
2.747194
2.750613
2.752838
2.753456
2.752207
2.748951
2.743841
2.737321
2.729902
2.722098
2.714262
2.706616
2.699375
2.692594
2.686244
2.680337
2.674870
2.669882
2.665505
2.661887
2.659236
2.657714
2.657482
2.658670
2.661330
2.665453
2.670858
2.677322
2.684657
2.692715
2.701412
2.710711
2.720588
2.730977
2.741754
2.752796
2.763923
2.774820
2.785225
2.794948
2.803823
2.811648
2.818273
2.823774
2.828319
2.832086
2.835260
2.838092
2.840857
2.843882
2.847553
2.852111
2.857510
2.863374
2.869142
2.874206
2.877886
2.879702
2.879433
2.877170
2.873146
2.867734
2.861358
2.854314
2.846716
2.838617
2.830082
2.821248
2.812279
2.803367
2.794399
2.785179
2.775630
2.764809
2.759136
2.753807
2.748837
2.744183
2.739773
2.735779
2.732314
2.729357
2.726736
2.724298
2.721960
2.719754
2.717712
2.715907
2.714381
2.713260
2.712809
2.713318
2.714884
2.717429
2.720731
2.724656
2.729105
2.733882
2.738788
2.743506
2.747677
2.751049
2.753357
2.754183
2.753158
2.750020
2.744946
2.738414
2.730999
2.723225
2.715427
2.707792
2.700450
2.693529
2.687132
2.681249
2.675809
2.670765
2.666260
2.662536
2.659815
2.658305
2.658095
2.659209
2.661696
2.665653
2.671017
2.677502
2.684838
2.692829
2.701467
2.710745
2.720664
2.731110
2.741933
2.752921
2.763961
2.774876
2.785419
2.795246
2.804107
2.811888
2.818534
2.824118
2.828737
2.832592
2.835775
2.838510
2.841149
2.844129
2.847771
2.852255
2.857532
2.863311
2.869072
2.874186
2.878032
2.880019
2.879820
2.877535
2.873527
2.868212
2.861889
2.854815
2.847162
2.839032
2.830506
2.821724
2.812797
2.803764
2.794698
2.785546
2.776156
2.760945
2.755428
2.750122
2.745145
2.740520
2.736275
2.732411
2.728965
2.725972
2.723341
2.720970
2.718785
2.716660
2.714648
2.712840
2.711350
2.710409
2.710202
2.710899
2.712628
2.715270
2.718698
2.722810
2.727389
2.732236
2.737090
2.741720
2.745878
2.749202
2.751279
2.751734
2.750285
2.746820
2.741557
2.734957
2.727547
2.719779
2.711999
2.704451
2.697248
2.690468
2.684119
2.678221
2.672768
2.667807
2.663485
2.659962
2.657423
2.656034
2.655955
2.657279
2.660068
2.664296
2.669805
2.676381
2.683814
2.692015
2.700829
2.710206
2.720126
2.730599
2.741519
2.752589
2.763622
2.774457
2.784877
2.794591
2.803329
2.811004
2.817555
2.822997
2.827483
2.831192
2.834379
2.837215
2.840029
2.843179
2.846995
2.851702
2.857139
2.862972
2.868651
2.873607
2.877169
2.878828
2.878375
2.875955
2.871848
2.866454
2.860140
2.853069
2.845466
2.837406
2.828986
2.820270
2.811411
2.802569
2.793590
2.784388
2.774862
2.765745
2.760136
2.754789
2.749741
2.745013
2.740690
2.736793
2.733316
2.730254
2.727578
2.725174
2.722945
2.720765
2.718672
2.716788
2.715220
2.714150
2.713797
2.714301
2.715847
2.718375
2.721764
2.725782
2.730242
2.735003
2.739873
2.744566
2.748765
2.752156
2.754409
2.755083
2.753863
2.750575
2.745420
2.738849
2.731368
2.723538
2.715668
2.708011
2.700712
2.693884
2.687535
2.681599
2.676060
2.671033
2.666645
2.662994
2.660283
2.658737
2.658528
2.659715
2.662344
2.666402
2.671768
2.678223
2.685558
2.693614
2.702263
2.711482
2.721329
2.731740
2.742512
2.753453
2.764465
2.775378
2.785849
2.795564
2.804333
2.812045
2.818650
2.824190
2.828765
2.832549
2.835690
2.838461
2.841212
2.844281
2.847974
2.852500
2.857863
2.863750
2.869594
2.874728
2.878502
2.880384
2.880164
2.877912
2.873878
2.868445
2.862100
2.855105
2.847546
2.839447
2.830914
2.822124
2.813172
2.804210
2.795212
2.786022
2.776523
2.761243
2.755746
2.750490
2.745443
2.740751
2.736534
2.732751
2.729385
2.726382
2.723686
2.721307
2.719103
2.716961
2.714934
2.713126
2.711583
2.710594
2.710337
2.710993
2.712635
2.715209
2.718578
2.722610
2.727083
2.731849
2.736711
2.741380
2.745511
2.748838
2.750985
2.751590
2.750284
2.747008
2.741867
2.735353
2.727997
2.720267
2.712484
2.704888
2.697680
2.690967
2.684680
2.678791
2.673331
2.668352
2.663993
2.660437
2.657879
2.656477
2.656314
2.657566
2.660286
2.664387
2.669826
2.676361
2.683775
2.691887
2.700587
2.709892
2.719832
2.730268
2.741122
2.752211
2.763392
2.774292
2.784753
2.794494
2.803326
2.811075
2.817613
2.823122
2.827661
2.831491
2.834756
2.837613
2.840321
2.843248
2.846932
2.851570
2.857006
2.862866
2.868571
2.873603
2.877260
2.879085
2.878825
2.876524
2.872419
2.866888
2.860486
2.853401
2.845744
2.837592
2.829021
2.820223
2.811348
2.802416
2.793380
2.784101
2.774529
2.763186
2.757581
2.752227
2.747198
2.742544
2.738297
2.734432
2.730997
2.727963
2.725308
2.722910
2.720671
2.718521
2.716468
2.714589
2.713035
2.712027
2.711753
2.712348
2.713926
2.716458
2.719845
2.723873
2.728370
2.733160
2.738009
2.742680
2.746828
2.750226
2.752488
2.753127
2.751841
2.748519
2.743380
2.736881
2.729474
2.721667
2.713852
2.706246
2.698995
2.692200
2.685836
2.679894
2.674401
2.669449
2.665131
2.661550
2.658890
2.657384
2.657178
2.658387
2.661063
2.665176
2.670606
2.677107
2.684488
2.692568
2.701262
2.710571
2.720502
2.730937
2.741729
2.752757
2.763883
2.774794
2.785218
2.794899
2.803690
2.811426
2.818057
2.823608
2.828214
2.831961
2.835084
2.837894
2.840656
2.843708
2.847373
2.851919
2.857325
2.863183
2.868982
2.874088
2.877824
2.879662
2.879371
2.876995
2.872861
2.867449
2.861127
2.854126
2.846492
2.838373
2.829875
2.821039
2.812097
2.803130
2.794149
2.784975
2.775449
2.764119
2.758517
2.753381
2.748507
2.743728
2.739159
2.735128
2.731814
2.728983
2.726327
2.723701
2.721260
2.719152
2.717342
2.715603
2.713919
2.712643
2.712214
2.712871
2.714583
2.717068
2.720268
2.724107
2.728567
2.733498
2.738508
2.743187
2.747245
2.750572
2.752955
2.753885
2.752837
2.749586
2.744379
2.737848
2.730572
2.722964
2.715220
2.707455
2.699972
2.693040
2.686770
2.681003
2.675524
2.670362
2.665801
2.662136
2.659568
2.658151
2.657873
2.658856
2.661303
2.665370
2.670860
2.677397
2.684656
2.692543
2.701142
2.710470
2.720463
2.730958
2.741720
2.752631
2.763680
2.774712
2.785391
2.795240
2.804028
2.811693
2.818346
2.824019
2.828740
2.832581
2.835658
2.838344
2.841028
2.844070
2.847737
2.852161
2.857319
2.863013
2.868800
2.874021
2.877904
2.879825
2.879575
2.877291
2.873331
2.868038
2.861673
2.854562
2.846897
2.838839
2.830426
2.821639
2.812616
2.803487
2.794457
2.785304
2.775843
2.760839
2.755318
2.750005
2.745009
2.740360
2.736138
2.732320
2.728925
2.725937
2.723301
2.720901
2.718685
2.716570
2.714570
2.712753
2.711266
2.710318
2.710102
2.710776
2.712481
2.715145
2.718637
2.722751
2.727297
2.732106
2.736990
2.741647
2.745790
2.749097
2.751181
2.751661
2.750225
2.746765
2.741480
2.734855
2.727439
2.719670
2.711893
2.704336
2.697136
2.690359
2.684023
2.678128
2.672674
2.667730
2.663445
2.659946
2.657396
2.655951
2.655856
2.657215
2.660023
2.664242
2.669751
2.676363
2.683807
2.691943
2.700726
2.710129
2.720119
2.730629
2.741538
2.752645
2.763706
2.774545
2.784930
2.794598
2.803314
2.810928
2.817420
2.822864
2.827391
2.831160
2.834348
2.837169
2.840000
2.843146
2.846965
2.851630
2.857058
2.862936
2.868643
2.873585
2.877123
2.878807
2.878405
2.875968
2.871851
2.866414
2.860050
2.853010
2.845474
2.837449
2.828970
2.820217
2.811350
2.802450
2.793460
2.784301
2.774858
2.766030
2.760429
2.755072
2.749951
2.745173
2.740854
2.736970
2.733527
2.730484
2.727749
2.725277
2.723024
2.720891
2.718880
2.716992
2.715356
2.714256
2.713906
2.714432
2.715961
2.718437
2.721767
2.725756
2.730237
2.735048
2.739934
2.744630
2.748810
2.752220
2.754505
2.755172
2.753955
2.750744
2.745665
2.739115
2.731635
2.723806
2.715986
2.708339
2.700988
2.694116
2.687750
2.681816
2.676267
2.671182
2.666758
2.663147
2.660494
2.658941
2.658647
2.659774
2.662388
2.666473
2.671849
2.678279
2.685571
2.693572
2.702216
2.711462
2.721312
2.731701
2.742489
2.753507
2.764552
2.775406
2.785814
2.795538
2.804348
2.812095
2.818739
2.824297
2.828927
2.832706
2.835852
2.838602
2.841302
2.844287
2.847935
2.852432
2.857757
2.863650
2.869522
2.874745
2.878542
2.880457
2.880231
2.877972
2.873958
2.868610
2.862313
2.855277
2.847683
2.839582
2.831091
2.822262
2.813270
2.804241
2.795185
2.785991
2.776564
2.761906
2.756342
2.751154
2.746164
2.741489
2.737198
2.733349
2.729962
2.726988
2.724331
2.721948
2.719742
2.717619
2.715579
2.713666
2.712121
2.711177
2.710916
2.711500
2.713052
2.715618
2.719012
2.723012
2.727523
2.732337
2.737173
2.741763
2.745918
2.749341
2.751564
2.752129
2.750848
2.747605
2.742518
2.735913
2.728472
2.720728
2.712959
2.705376
2.698130
2.691351
2.685056
2.679190
2.673745
2.668784
2.664434
2.660861
2.658302
2.656864
2.656689
2.657927
2.660588
2.664734
2.670186
2.676705
2.684100
2.692139
2.700821
2.710100
2.720024
2.730479
2.741346
2.752364
2.763471
2.774439
2.784933
2.794701
2.803536
2.811229
2.817772
2.823283
2.827907
2.831713
2.834848
2.837656
2.840450
2.843448
2.847059
2.851626
2.857119
2.863008
2.868781
2.873747
2.877446
2.879311
2.879050
2.876807
2.872660
2.867188
2.860719
2.853632
2.846026
2.837960
2.829471
2.820557
2.811525
2.802558
2.793572
2.784367
2.774856
2.762614
2.757096
2.751802
2.746769
2.742059
2.737838
2.733984
2.730507
2.727465
2.724832
2.722487
2.720271
2.718136
2.716110
2.714263
2.712705
2.711685
2.711410
2.711964
2.713526
2.716048
2.719409
2.723412
2.727896
2.732690
2.737536
2.742117
2.746230
2.749573
2.751814
2.752475
2.751284
2.747997
2.742840
2.736271
2.728882
2.721138
2.713320
2.705704
2.698502
2.691771
2.685469
2.679573
2.674179
2.669240
2.664866
2.661270
2.658671
2.657238
2.657101
2.658334
2.661013
2.665126
2.670543
2.677065
2.684415
2.692413
2.701106
2.710415
2.720301
2.730675
2.741482
2.752588
2.763655
2.774495
2.784928
2.794694
2.803505
2.811211
2.817837
2.823463
2.828071
2.831831
2.834995
2.837781
2.840517
2.843546
2.847233
2.851843
2.857242
2.863115
2.868910
2.873966
2.877715
2.879641
2.879478
2.877155
2.872990
2.867491
2.861143
2.854102
2.846385
2.838178
2.829628
2.820838
2.811747
2.802642
2.793553
2.784386
2.774853
2.756578
2.751229
2.746097
2.741275
2.736807
2.732709
2.728980
2.725690
2.722817
2.720248
2.717903
2.715704
2.713643
2.711686
2.709899
2.708453
2.707560
2.707371
2.708044
2.709720
2.712329
2.715750
2.719782
2.724256
2.729012
2.733803
2.738353
2.742433
2.745630
2.747629
2.748016
2.746569
2.743108
2.737857
2.731334
2.724023
2.716366
2.708705
2.701259
2.694248
2.687656
2.681467
2.675707
2.670359
2.665521
2.661355
2.658059
2.655676
2.654401
2.654389
2.655784
2.658671
2.662941
2.668499
2.675115
2.682549
2.690681
2.699434
2.708846
2.718839
2.729303
2.740152
2.751276
2.762414
2.773319
2.783730
2.793383
2.802087
2.809728
2.816292
2.821845
2.826376
2.830079
2.833255
2.836149
2.839018
2.842242
2.846201
2.851041
2.856579
2.862486
2.868322
2.873297
2.876760
2.878361
2.877864
2.875304
2.870979
2.865401
2.858949
2.851836
2.844134
2.835907
2.827265
2.818389
2.809410
2.800329
2.791102
2.781710
2.772063
2.760539
2.755077
2.749765
2.744804
2.740191
2.736052
2.732286
2.728907
2.725940
2.723346
2.720976
2.718805
2.716678
2.714657
2.712776
2.711283
2.710386
2.710204
2.710829
2.712446
2.715085
2.718571
2.722652
2.727144
2.731933
2.736740
2.741340
2.745374
2.748655
2.750718
2.751111
2.749629
2.746162
2.740909
2.734302
2.726839
2.719095
2.711319
2.703805
2.696695
2.690016
2.683764
2.677902
2.672502
2.667669
2.663403
2.659951
2.657500
2.656187
2.656127
2.657464
2.660301
2.664567
2.670075
2.676623
2.684019
2.692156
2.700907
2.710252
2.720172
2.730626
2.741449
2.752515
2.763592
2.774452
2.784788
2.794379
2.803058
2.810688
2.817227
2.822700
2.827253
2.830942
2.834050
2.836884
2.839777
2.842965
2.846865
2.851646
2.857225
2.863190
2.868989
2.873986
2.877569
2.879258
2.878864
2.876389
2.872208
2.866706
2.860231
2.853134
2.845471
2.837333
2.828754
2.819928
2.811042
2.802041
2.792936
2.783640
2.774026
2.758316
2.752756
2.747699
2.743148
2.738702
2.734391
2.730434
2.727125
2.724406
2.722001
2.719615
2.717261
2.715021
2.713069
2.711453
2.710147
2.709180
2.708846
2.709560
2.711438
2.714279
2.717813
2.721840
2.726234
2.731001
2.735943
2.740719
2.744799
2.747768
2.749432
2.749659
2.748193
2.744723
2.739335
2.732514
2.724946
2.717266
2.709695
2.702316
2.695169
2.688337
2.682015
2.676328
2.671115
2.666308
2.662012
2.658550
2.656184
2.655030
2.655193
2.656651
2.659469
2.663689
2.669274
2.676019
2.683622
2.691791
2.700521
2.709871
2.719910
2.730482
2.741438
2.752453
2.763389
2.774140
2.784523
2.794223
2.802837
2.810267
2.816601
2.821983
2.826512
2.830315
2.833552
2.836363
2.839163
2.842417
2.846481
2.851467
2.857128
2.863092
2.868813
2.873696
2.877183
2.878751
2.878100
2.875415
2.871178
2.865796
2.859448
2.852348
2.844586
2.836408
2.827996
2.819347
2.810520
2.801449
2.792305
2.783070
2.773519
2.758838
2.753399
2.748210
2.743310
2.738737
2.734550
2.730772
2.727433
2.724484
2.721897
2.719571
2.717410
2.715332
2.713316
2.711470
2.709928
2.708921
2.708690
2.709297
2.710876
2.713408
2.716782
2.720781
2.725216
2.729956
2.734766
2.739354
2.743436
2.746759
2.748977
2.749550
2.748241
2.744924
2.739785
2.733301
2.725981
2.718298
2.710592
2.703078
2.695941
2.689277
2.683045
2.677248
2.671913
2.667125
2.662928
2.659447
2.656894
2.655509
2.655446
2.656771
2.659527
2.663685
2.669133
2.675670
2.683045
2.691126
2.699828
2.709187
2.719189
2.729645
2.740420
2.751468
2.762607
2.773551
2.784010
2.793756
2.802581
2.810297
2.816879
2.822406
2.827036
2.830862
2.834074
2.836882
2.839710
2.842809
2.846547
2.851178
2.856674
2.862646
2.868428
2.873461
2.877116
2.878851
2.878487
2.876106
2.871971
2.866416
2.859888
2.852726
2.845007
2.836751
2.828086
2.819151
2.810066
2.800951
2.791821
2.782570
2.772975
2.762241
2.756743
2.751475
2.746524
2.741897
2.737509
2.733550
2.730249
2.727542
2.724979
2.722379
2.719930
2.717913
2.716074
2.714362
2.712931
2.711954
2.711523
2.711738
2.712995
2.715548
2.719230
2.723556
2.727970
2.732344
2.736999
2.741963
2.746329
2.749417
2.751383
2.752285
2.751407
2.748007
2.742475
2.735895
2.728738
2.721113
2.713282
2.705679
2.698378
2.691549
2.685266
2.679491
2.674049
2.669066
2.664771
2.661274
2.658598
2.657057
2.656913
2.658199
2.660851
2.664877
2.670364
2.676922
2.684298
2.692364
2.700978
2.710227
2.720166
2.730697
2.741601
2.752557
2.763537
2.774410
2.784885
2.794718
2.803609
2.811309
2.817830
2.823365
2.828049
2.831864
2.834933
2.837673
2.840424
2.843437
2.847146
2.851759
2.857215
2.863063
2.868761
2.873870
2.877754
2.879670
2.879343
2.876877
2.872808
2.867518
2.861158
2.854072
2.846353
2.838142
2.829580
2.820699
2.811717
2.802620
2.793497
2.784256
2.774753
2.755651
2.750282
2.745154
2.740386
2.735928
2.731845
2.728105
2.724838
2.721946
2.719366
2.717020
2.714853
2.712868
2.710951
2.709140
2.707615
2.706717
2.706617
2.707371
2.709025
2.711593
2.714996
2.719059
2.723581
2.728350
2.733103
2.737655
2.741704
2.744926
2.746924
2.747261
2.745829
2.742433
2.737231
2.730676
2.723319
2.715690
2.708062
2.700655
2.693663
2.687082
2.680886
2.675105
2.669766
2.664979
2.660844
2.657525
2.655155
2.653857
2.653866
2.655293
2.658224
2.662515
2.668011
2.674626
2.682090
2.690265
2.699092
2.708566
2.718593
2.729022
2.739824
2.750958
2.762122
2.773011
2.783432
2.793183
2.801917
2.809459
2.815936
2.821530
2.826206
2.829963
2.833116
2.835998
2.838894
2.842137
2.846082
2.850900
2.856384
2.862241
2.868040
2.873007
2.876453
2.878003
2.877471
2.874948
2.870680
2.865123
2.858659
2.851488
2.843669
2.835336
2.826770
2.818094
2.809217
2.799990
2.790677
2.781330
2.771668
2.759793
2.754344
2.749098
2.744170
2.739596
2.735383
2.731648
2.728304
2.725357
2.722704
2.720332
2.718158
2.716085
2.714070
2.712225
2.710718
2.709781
2.709555
2.710260
2.711966
2.714544
2.717996
2.722101
2.726639
2.731428
2.736232
2.740843
2.744922
2.748170
2.750205
2.750626
2.749155
2.745655
2.740364
2.733737
2.726285
2.718523
2.710820
2.703331
2.696170
2.689498
2.683258
2.677447
2.672045
2.667169
2.662963
2.659518
2.657046
2.655786
2.655805
2.657201
2.660019
2.664258
2.669795
2.676360
2.683777
2.691912
2.700675
2.710034
2.719963
2.730399
2.741271
2.752317
2.763372
2.774202
2.784583
2.794222
2.802877
2.810494
2.817048
2.822553
2.827083
2.830836
2.833966
2.836748
2.839597
2.842793
2.846723
2.851508
2.857060
2.863024
2.868837
2.873853
2.877391
2.879027
2.878590
2.876172
2.871986
2.866448
2.859937
2.852814
2.845204
2.837067
2.828474
2.819641
2.810664
2.801638
2.792625
2.783415
2.773828
2.758639
2.753224
2.747863
2.742873
2.738473
2.734568
2.730862
2.727399
2.724323
2.721783
2.719641
2.717533
2.715297
2.713114
2.711279
2.710043
2.709330
2.709196
2.709820
2.711456
2.714135
2.717750
2.721991
2.726499
2.731175
2.735948
2.740592
2.744732
2.747889
2.749717
2.749858
2.748199
2.744665
2.739460
2.732842
2.725277
2.717356
2.709632
2.702297
2.695305
2.688593
2.682202
2.676306
2.670982
2.666270
2.662192
2.658780
2.656254
2.654936
2.655098
2.656676
2.659567
2.663805
2.669354
2.676048
2.683628
2.691900
2.700723
2.710032
2.719876
2.730376
2.741410
2.752623
2.763580
2.774253
2.784514
2.794178
2.802896
2.810399
2.816729
2.822021
2.826499
2.830300
2.833519
2.836294
2.839100
2.842390
2.846505
2.851470
2.857091
2.863051
2.868793
2.873729
2.877222
2.878796
2.878209
2.875565
2.871254
2.865726
2.859405
2.852413
2.844786
2.836558
2.827981
2.819294
2.810475
2.801510
2.792397
2.783161
2.773606
2.758611
2.753159
2.747981
2.743081
2.738484
2.734333
2.730558
2.727253
2.724323
2.721746
2.719413
2.717247
2.715133
2.713130
2.711289
2.709736
2.708727
2.708461
2.709083
2.710689
2.713239
2.716586
2.720588
2.725043
2.729773
2.734570
2.739187
2.743274
2.746589
2.748749
2.749289
2.748018
2.744793
2.739706
2.733209
2.725803
2.718123
2.710434
2.702911
2.695753
2.689096
2.682928
2.677181
2.671808
2.666933
2.662704
2.659286
2.656825
2.655446
2.655328
2.656633
2.659416
2.663599
2.669027
2.675525
2.682913
2.691035
2.699761
2.709125
2.719112
2.729558
2.740355
2.751431
2.762600
2.773543
2.783963
2.793710
2.802530
2.810266
2.816836
2.822409
2.826977
2.830723
2.833906
2.836793
2.839688
2.842787
2.846532
2.851175
2.856615
2.862521
2.868308
2.873326
2.876995
2.878839
2.878542
2.876067
2.871805
2.866265
2.859833
2.852718
2.844950
2.836686
2.828003
2.819108
2.810017
2.800848
2.791724
2.782416
2.772800
2.550476
2.546687
2.543111
2.539783
2.536761
2.534083
2.531757
2.529830
2.528262
2.527075
2.526215
2.525591
2.525143
2.524895
2.524929
2.525375
2.526340
2.527972
2.530378
2.533694
2.537855
2.542769
2.548284
2.554256
2.560542
2.566972
2.573323
2.579330
2.584719
2.589155
2.592278
2.593820
2.593602
2.591692
2.588426
2.584194
2.579326
2.574081
2.568677
2.563363
2.558287
2.553526
2.549118
2.545178
2.541788
2.539088
2.537257
2.536477
2.536928
2.538858
2.542355
2.547586
2.554545
2.563191
2.573253
2.584467
2.596682
2.609792
2.623732
2.638455
2.653834
2.669706
2.685777
2.701722
2.717095
2.731522
2.744660
2.756234
2.766082
2.774177
2.780686
2.785739
2.789549
2.792309
2.794304
2.795843
2.797181
2.798584
2.800144
2.801943
2.803762
2.805275
2.806119
2.805886
2.804323
2.801265
2.796789
2.791077
2.784398
2.777043
2.769209
2.760961
2.752344
2.743472
2.734478
2.725460
2.716455
2.707485
2.698494
2.689328
2.545847
2.541914
2.538418
2.535384
2.532515
2.529744
2.527300
2.525472
2.524177
2.523177
2.522283
2.521524
2.521046
2.520957
2.521203
2.521758
2.522659
2.524193
2.526622
2.530120
2.534472
2.539441
2.544855
2.550730
2.557089
2.563689
2.570112
2.576019
2.581245
2.585624
2.588838
2.590480
2.590266
2.588284
2.584936
2.580713
2.575999
2.570921
2.565607
2.560218
2.555056
2.550350
2.546112
2.542262
2.538869
2.536145
2.534406
2.533814
2.534450
2.536458
2.539974
2.545206
2.552244
2.561020
2.571234
2.582567
2.594809
2.607917
2.621987
2.636950
2.652586
2.668605
2.684748
2.700766
2.716247
2.730784
2.743912
2.755356
2.765024
2.773065
2.779573
2.784635
2.788389
2.791101
2.793062
2.794591
2.796017
2.797506
2.799094
2.800784
2.802558
2.804114
2.804947
2.804579
2.802820
2.799626
2.795113
2.789436
2.782739
2.775289
2.767320
2.759049
2.750505
2.741706
2.732711
2.723626
2.714562
2.705576
2.696658
2.687564
2.543652
2.539946
2.536398
2.533156
2.530237
2.527694
2.525494
2.523656
2.522165
2.521060
2.520261
2.519693
2.519340
2.519192
2.519339
2.519860
2.520909
2.522665
2.525243
2.528632
2.532872
2.537859
2.543454
2.549506
2.555847
2.562286
2.568603
2.574543
2.579866
2.584230
2.587271
2.588738
2.588440
2.586484
2.583178
2.578987
2.574161
2.568969
2.563656
2.558437
2.553457
2.548785
2.544479
2.540627
2.537326
2.534737
2.533070
2.532453
2.533069
2.535164
2.538872
2.544312
2.551479
2.560258
2.570489
2.581893
2.594287
2.607561
2.621630
2.636511
2.652105
2.668173
2.684382
2.700383
2.715805
2.730303
2.743396
2.754884
2.764594
2.772550
2.778943
2.783953
2.787707
2.790463
2.792463
2.794053
2.795508
2.796946
2.798514
2.800308
2.802109
2.803618
2.804349
2.803988
2.802300
2.799084
2.794424
2.788581
2.781829
2.774444
2.766646
2.758372
2.749731
2.740794
2.731748
2.722656
2.713608
2.704696
2.695741
2.686572
2.545384
2.541657
2.538155
2.534897
2.531956
2.529354
2.527100
2.525211
2.523734
2.522643
2.521849
2.521255
2.520859
2.520686
2.520804
2.521286
2.522295
2.523995
2.526514
2.529904
2.534137
2.539111
2.544700
2.550743
2.557091
2.563553
2.569902
2.575872
2.581227
2.585634
2.588722
2.590200
2.589939
2.588021
2.584774
2.580539
2.575665
2.570448
2.565093
2.559841
2.554821
2.550089
2.545723
2.541807
2.538487
2.535874
2.534133
2.533472
2.534058
2.536083
2.539682
2.545002
2.552104
2.560887
2.571069
2.582404
2.594733
2.607986
2.622100
2.636977
2.652526
2.668541
2.684760
2.700849
2.716340
2.730830
2.743930
2.755380
2.765038
2.773030
2.779443
2.784419
2.788162
2.790890
2.792906
2.794461
2.795854
2.797334
2.798988
2.800808
2.802580
2.804012
2.804753
2.804386
2.802664
2.799462
2.794892
2.789098
2.782378
2.775019
2.767188
2.758932
2.750322
2.741520
2.732565
2.723552
2.714566
2.705640
2.696671
2.687507
2.548580
2.544739
2.541215
2.537998
2.535013
2.532253
2.529793
2.527853
2.526402
2.525331
2.524447
2.523725
2.523241
2.523093
2.523269
2.523743
2.524632
2.526195
2.528612
2.531995
2.536198
2.541098
2.546539
2.552478
2.558803
2.565326
2.571739
2.577712
2.583013
2.587454
2.590711
2.592432
2.592332
2.590443
2.587173
2.582984
2.578233
2.573099
2.567743
2.562368
2.557240
2.552493
2.548161
2.544277
2.540891
2.538117
2.536218
2.535430
2.535948
2.537917
2.541363
2.546476
2.553391
2.562042
2.572133
2.583352
2.595527
2.608604
2.622579
2.637389
2.652891
2.668843
2.684956
2.700936
2.716419
2.731002
2.744290
2.755917
2.765712
2.773767
2.780300
2.785428
2.789300
2.792072
2.794058
2.795592
2.796899
2.798242
2.799736
2.801429
2.803186
2.804680
2.805488
2.805231
2.803597
2.800482
2.795965
2.790262
2.783642
2.776280
2.768380
2.760063
2.751461
2.742711
2.733788
2.724724
2.715679
2.706715
2.697772
2.688608
2.549887
2.546089
2.542508
2.539172
2.536146
2.533480
2.531150
2.529250
2.527734
2.526568
2.525710
2.525075
2.524642
2.524410
2.524442
2.524874
2.525829
2.527453
2.529862
2.533185
2.537375
2.542326
2.547856
2.553834
2.560133
2.566566
2.572916
2.578909
2.584284
2.588706
2.591835
2.593392
2.593179
2.591275
2.588003
2.583743
2.578864
2.573616
2.568229
2.562898
2.557782
2.553014
2.548663
2.544766
2.541388
2.538667
2.536846
2.536093
2.536589
2.538507
2.542018
2.547258
2.554233
2.562876
2.572962
2.584260
2.596522
2.609628
2.623541
2.638282
2.653707
2.669621
2.685725
2.701705
2.717121
2.731570
2.744681
2.756152
2.765905
2.773972
2.780463
2.785493
2.789292
2.792084
2.794120
2.795652
2.796969
2.798365
2.799978
2.801779
2.803573
2.805106
2.805977
2.805745
2.804132
2.801067
2.796596
2.790883
2.784200
2.776836
2.768922
2.760618
2.752040
2.743253
2.734300
2.725256
2.716232
2.707251
2.698251
2.689089
2.541202
2.537490
2.533923
2.530692
2.527818
2.525295
2.523122
2.521305
2.519831
2.518775
2.517990
2.517441
2.517107
2.516970
2.517141
2.517695
2.518762
2.520527
2.523099
2.526617
2.530941
2.535950
2.541549
2.547651
2.554072
2.560580
2.566900
2.572895
2.578241
2.582619
2.585618
2.587016
2.586700
2.584747
2.581454
2.577208
2.572317
2.567102
2.561855
2.556680
2.551725
2.547064
2.542722
2.538853
2.535567
2.532964
2.531361
2.530818
2.531515
2.533677
2.537419
2.542916
2.550192
2.559103
2.569443
2.580872
2.593303
2.606663
2.620896
2.635925
2.651542
2.667624
2.683952
2.700097
2.715558
2.729959
2.743044
2.754494
2.764142
2.772059
2.778371
2.783356
2.787080
2.789776
2.791740
2.793253
2.794628
2.796061
2.797774
2.799634
2.801377
2.802786
2.803480
2.803122
2.801285
2.798042
2.793470
2.787671
2.780959
2.773519
2.765608
2.757229
2.748614
2.739825
2.730850
2.721848
2.712815
2.703857
2.694849
2.685634
2.542776
2.539183
2.535746
2.532528
2.529554
2.526955
2.524744
2.522980
2.521548
2.520442
2.519642
2.519083
2.518742
2.518629
2.518745
2.519227
2.520269
2.522020
2.524614
2.528048
2.532251
2.537189
2.542832
2.548896
2.555286
2.561701
2.567973
2.573977
2.579331
2.583722
2.586749
2.588163
2.587841
2.585901
2.582625
2.578408
2.573549
2.568377
2.563092
2.557925
2.552998
2.548333
2.543984
2.540086
2.536789
2.534304
2.532712
2.532115
2.532744
2.534825
2.538502
2.543937
2.551099
2.559983
2.570178
2.581518
2.593888
2.607223
2.621397
2.636297
2.651879
2.667972
2.684255
2.700305
2.715725
2.730105
2.743162
2.754688
2.764445
2.772433
2.778811
2.783759
2.787508
2.790256
2.792240
2.793843
2.795251
2.796713
2.798302
2.800134
2.801983
2.803432
2.804148
2.803780
2.802072
2.798861
2.794251
2.788395
2.781622
2.774197
2.766304
2.757990
2.749346
2.740523
2.731531
2.722485
2.713367
2.704312
2.695304
2.686150
2.545338
2.541583
2.538025
2.534737
2.531767
2.529158
2.526927
2.525088
2.523594
2.522461
2.521626
2.521050
2.520682
2.520486
2.520568
2.521059
2.522102
2.523822
2.526308
2.529664
2.533880
2.538878
2.544477
2.550515
2.556862
2.563309
2.569652
2.575644
2.581016
2.585450
2.588577
2.590095
2.589884
2.588015
2.584777
2.580550
2.575695
2.570508
2.565183
2.559920
2.554842
2.550080
2.545702
2.541764
2.538416
2.535807
2.534090
2.533417
2.533975
2.535969
2.539582
2.544916
2.551979
2.560695
2.570844
2.582211
2.594586
2.607796
2.621864
2.636755
2.652381
2.668477
2.684736
2.700813
2.716280
2.730732
2.743808
2.755342
2.765112
2.773120
2.779482
2.784430
2.788190
2.790961
2.792981
2.794481
2.795780
2.797188
2.798812
2.800633
2.802388
2.803839
2.804591
2.804234
2.802554
2.799407
2.794886
2.789112
2.782376
2.774986
2.767136
2.758908
2.750338
2.741487
2.732487
2.723471
2.714518
2.705571
2.696579
2.687435
2.548946
2.545115
2.541535
2.538263
2.535260
2.532534
2.530155
2.528219
2.526730
2.525636
2.524759
2.524030
2.523528
2.523352
2.523512
2.523979
2.524864
2.526407
2.528823
2.532198
2.536391
2.541260
2.546694
2.552637
2.558977
2.565467
2.571847
2.577843
2.583234
2.587706
2.590965
2.592648
2.592538
2.590699
2.587481
2.583309
2.578533
2.573338
2.567961
2.562613
2.557513
2.552764
2.548454
2.544547
2.541123
2.538337
2.536450
2.535682
2.536175
2.538051
2.541472
2.546611
2.553511
2.562127
2.572196
2.583421
2.595607
2.608703
2.622712
2.637574
2.653063
2.668971
2.685034
2.700983
2.716471
2.731050
2.744317
2.755911
2.765744
2.773878
2.780404
2.785524
2.789372
2.792138
2.794125
2.795613
2.796911
2.798272
2.799816
2.801550
2.803297
2.804751
2.805551
2.805308
2.803705
2.800615
2.796106
2.790418
2.783780
2.776416
2.768530
2.760257
2.751685
2.742853
2.733874
2.724812
2.715768
2.706777
2.697823
2.688750
2.550399
2.546674
2.543184
2.540009
2.537089
2.534482
2.532215
2.530346
2.528833
2.527741
2.526936
2.526334
2.525895
2.525641
2.525710
2.526180
2.527123
2.528699
2.531114
2.534360
2.538478
2.543326
2.548805
2.554758
2.560988
2.567303
2.573549
2.579405
2.584648
2.588963
2.592039
2.593561
2.593345
2.591444
2.588168
2.583913
2.579034
2.573848
2.568562
2.563343
2.558323
2.553625
2.549335
2.545490
2.542176
2.539543
2.537754
2.537041
2.537557
2.539480
2.542982
2.548141
2.555042
2.563616
2.573584
2.584757
2.596906
2.609927
2.623805
2.638490
2.653882
2.669747
2.685781
2.701684
2.717061
2.731515
2.744648
2.756177
2.765989
2.774063
2.780510
2.785586
2.789432
2.792336
2.794446
2.796067
2.797475
2.798871
2.800484
2.802328
2.804208
2.805770
2.806662
2.806487
2.804968
2.801869
2.797321
2.791583
2.784830
2.777384
2.769400
2.761064
2.752429
2.743499
2.734473
2.725357
2.716294
2.707241
2.698171
2.688963
2.543873
2.540406
2.537077
2.533909
2.531039
2.528563
2.526489
2.524742
2.523412
2.522384
2.521622
2.521062
2.520674
2.520493
2.520634
2.521146
2.522194
2.523847
2.526327
2.529694
2.533870
2.538780
2.544264
2.550153
2.556369
2.562676
2.568912
2.574774
2.580028
2.584366
2.587396
2.588804
2.588504
2.586601
2.583422
2.579253
2.574465
2.569373
2.564176
2.559026
2.554095
2.549506
2.545321
2.541499
2.538203
2.535678
2.534074
2.533461
2.534039
2.536096
2.539768
2.545093
2.552116
2.560814
2.570953
2.582247
2.594523
2.607719
2.621753
2.636587
2.652118
2.668142
2.684338
2.700354
2.715799
2.730232
2.743313
2.754792
2.764588
2.772678
2.779123
2.784131
2.787934
2.790745
2.792821
2.794432
2.795849
2.797307
2.799010
2.800934
2.802816
2.804306
2.805049
2.804700
2.802972
2.799788
2.795223
2.789405
2.782576
2.775099
2.767143
2.758760
2.750003
2.741008
2.731949
2.722870
2.713830
2.704693
2.695464
2.686083
2.543706
2.540269
2.536765
2.533525
2.530822
2.528634
2.526726
2.524896
2.523285
2.522173
2.521591
2.521219
2.520908
2.520608
2.520580
2.521144
2.522344
2.524150
2.526588
2.529755
2.533899
2.538962
2.544602
2.550539
2.556585
2.562777
2.569050
2.575058
2.580323
2.584431
2.587147
2.588476
2.588271
2.586449
2.583173
2.578877
2.573957
2.568875
2.563826
2.558873
2.554004
2.549302
2.544949
2.541137
2.538006
2.535617
2.533998
2.533313
2.533852
2.535969
2.539792
2.545222
2.552205
2.560808
2.570961
2.582409
2.594789
2.607935
2.621906
2.636724
2.652350
2.668489
2.684726
2.700654
2.715939
2.730354
2.743478
2.754974
2.764610
2.772500
2.778816
2.783821
2.787683
2.790585
2.792640
2.794233
2.795701
2.797282
2.799071
2.801016
2.802936
2.804424
2.805147
2.804794
2.803115
2.799847
2.795121
2.789207
2.782475
2.775104
2.767182
2.758782
2.749999
2.741121
2.732132
2.722975
2.713749
2.704516
2.695321
2.685963
2.544649
2.540999
2.537549
2.534376
2.531494
2.528890
2.526625
2.524798
2.523379
2.522357
2.521564
2.520955
2.520567
2.520409
2.520529
2.521038
2.522008
2.523659
2.526129
2.529499
2.533694
2.538623
2.544156
2.550127
2.556409
2.562827
2.569140
2.575062
2.580372
2.584737
2.587828
2.589367
2.589155
2.587312
2.584094
2.579901
2.575099
2.569943
2.564686
2.559516
2.554564
2.549910
2.545619
2.541754
2.538479
2.535879
2.534157
2.533506
2.534070
2.536119
2.539738
2.545046
2.552078
2.560774
2.570907
2.582225
2.594485
2.607616
2.621633
2.636469
2.652037
2.668024
2.684203
2.700249
2.715719
2.730189
2.743320
2.754915
2.764794
2.772905
2.779354
2.784404
2.788226
2.791015
2.793082
2.794666
2.796035
2.797359
2.798924
2.800733
2.802588
2.804058
2.804795
2.804505
2.802858
2.799693
2.795052
2.789179
2.782431
2.775053
2.767201
2.758844
2.750143
2.741171
2.732089
2.723053
2.714041
2.705016
2.695895
2.686695
2.544867
2.541102
2.537566
2.534490
2.531819
2.529367
2.527101
2.525158
2.523701
2.522757
2.522132
2.521551
2.521057
2.520770
2.520902
2.521559
2.522633
2.524226
2.526537
2.529806
2.534065
2.539099
2.544576
2.550403
2.556544
2.562907
2.569263
2.575241
2.580516
2.584766
2.587763
2.589311
2.589158
2.587330
2.584075
2.579808
2.575023
2.569966
2.564817
2.559714
2.554727
2.550031
2.545763
2.542010
2.538822
2.536267
2.534503
2.533833
2.534454
2.536572
2.540252
2.545477
2.552367
2.560918
2.571032
2.582382
2.594671
2.607761
2.621664
2.636401
2.651950
2.668033
2.684265
2.700241
2.715651
2.730193
2.743444
2.755033
2.764801
2.772819
2.779290
2.784361
2.788225
2.791126
2.793175
2.794704
2.796058
2.797552
2.799269
2.801059
2.802862
2.804339
2.805112
2.804823
2.803159
2.799995
2.795334
2.789509
2.782808
2.775392
2.767365
2.758873
2.750156
2.741231
2.732200
2.723080
2.713960
2.704849
2.695774
2.686627
2.550003
2.546354
2.542873
2.539646
2.536677
2.534044
2.531780
2.529932
2.528451
2.527316
2.526461
2.525901
2.525494
2.525281
2.525313
2.525740
2.526691
2.528291
2.530687
2.533960
2.538096
2.542964
2.548412
2.554352
2.560570
2.566916
2.573186
2.579053
2.584348
2.588696
2.591733
2.593236
2.592994
2.591100
2.587875
2.583631
2.578806
2.573655
2.568360
2.563121
2.558125
2.553427
2.549107
2.545256
2.541943
2.539317
2.537495
2.536749
2.537285
2.539251
2.542747
2.547919
2.554852
2.563443
2.573433
2.584579
2.596678
2.609678
2.623582
2.638305
2.653698
2.669513
2.685583
2.701541
2.716973
2.731428
2.744538
2.756076
2.765914
2.774000
2.780495
2.785586
2.789441
2.792290
2.794347
2.795930
2.797296
2.798674
2.800307
2.802207
2.804105
2.805653
2.806477
2.806231
2.804684
2.801762
2.797304
2.791479
2.784651
2.777204
2.769237
2.760920
2.752308
2.743415
2.734335
2.725195
2.716115
2.707039
2.697945
2.688726
2.543446
2.539938
2.536567
2.533428
2.530608
2.528161
2.526055
2.524333
2.522979
2.521948
2.521143
2.520555
2.520194
2.520078
2.520229
2.520737
2.521731
2.523413
2.525869
2.529219
2.533375
2.538276
2.543825
2.549783
2.556002
2.562345
2.568587
2.574445
2.579688
2.583997
2.587007
2.588411
2.588124
2.586243
2.583042
2.578900
2.574125
2.569045
2.563852
2.558709
2.553838
2.549244
2.544968
2.541132
2.537899
2.535423
2.533814
2.533175
2.533763
2.535836
2.539510
2.544864
2.551921
2.560616
2.570728
2.582017
2.594294
2.607461
2.621529
2.636442
2.652011
2.668013
2.684155
2.700207
2.715731
2.730201
2.743280
2.754752
2.764527
2.772522
2.778938
2.783973
2.787808
2.790618
2.792691
2.794349
2.795772
2.797175
2.798818
2.800726
2.802615
2.804114
2.804881
2.804612
2.802912
2.799683
2.794997
2.789129
2.782347
2.774913
2.766972
2.758570
2.749886
2.740998
2.731891
2.722690
2.713508
2.704398
2.695191
2.685857
2.544297
2.540765
2.537336
2.534273
2.531671
2.529435
2.527372
2.525526
2.524046
2.523067
2.522473
2.521993
2.521570
2.521288
2.521367
2.521980
2.523129
2.524821
2.527191
2.530472
2.534689
2.539693
2.545168
2.551028
2.557179
2.563473
2.569704
2.575591
2.580768
2.584872
2.587610
2.588944
2.588687
2.586842
2.583594
2.579288
2.574443
2.569416
2.564383
2.559380
2.554444
2.549707
2.545402
2.541640
2.538488
2.536032
2.534369
2.533748
2.534383
2.536520
2.540267
2.545633
2.552584
2.561186
2.571337
2.582734
2.595057
2.608200
2.622186
2.637036
2.652613
2.668706
2.684922
2.700859
2.716174
2.730545
2.743616
2.755062
2.764731
2.772669
2.779014
2.783990
2.787780
2.790644
2.792754
2.794410
2.795907
2.797491
2.799306
2.801264
2.803193
2.804715
2.805475
2.805167
2.803448
2.800175
2.795454
2.789616
2.782871
2.775417
2.767402
2.758987
2.750257
2.741335
2.732343
2.723272
2.714096
2.704818
2.695574
2.686190
2.545068
2.541405
2.537959
2.534748
2.531837
2.529250
2.527039
2.525232
2.523772
2.522698
2.521901
2.521311
2.520951
2.520773
2.520883
2.521350
2.522325
2.523970
2.526430
2.529798
2.533995
2.538893
2.544422
2.550412
2.556703
2.563088
2.569347
2.575308
2.580658
2.585061
2.588160
2.589680
2.589451
2.587600
2.584385
2.580200
2.575404
2.570248
2.564964
2.559741
2.554746
2.550114
2.545883
2.542065
2.538766
2.536152
2.534401
2.533726
2.534308
2.536344
2.539937
2.545213
2.552253
2.560939
2.571050
2.582326
2.594632
2.607847
2.621878
2.636652
2.652147
2.668161
2.684353
2.700380
2.715857
2.730366
2.743532
2.755036
2.764823
2.772919
2.779384
2.784418
2.788260
2.791133
2.793181
2.794674
2.796034
2.797454
2.799063
2.800811
2.802599
2.804162
2.804954
2.804645
2.802957
2.799784
2.795247
2.789460
2.782679
2.775232
2.767285
2.758990
2.750304
2.741395
2.732335
2.723200
2.714103
2.705055
2.696039
2.686895
2.544906
2.541246
2.537651
2.534432
2.531730
2.529344
2.527126
2.525190
2.523715
2.522760
2.522162
2.521608
2.521119
2.520793
2.520884
2.521550
2.522707
2.524324
2.526603
2.529803
2.534064
2.539148
2.544695
2.550514
2.556578
2.562903
2.569264
2.575272
2.580520
2.584725
2.587706
2.589260
2.589148
2.587342
2.584050
2.579773
2.574975
2.569971
2.564910
2.559785
2.554747
2.550033
2.545775
2.542066
2.538894
2.536321
2.534536
2.533821
2.534448
2.536596
2.540241
2.545449
2.552320
2.560939
2.571073
2.582399
2.594656
2.607730
2.621633
2.636437
2.652066
2.668149
2.684303
2.700226
2.715645
2.730234
2.743467
2.755048
2.764823
2.772819
2.779247
2.784366
2.788346
2.791200
2.793117
2.794576
2.795989
2.797527
2.799212
2.801044
2.802870
2.804315
2.805095
2.804861
2.803287
2.800109
2.795389
2.789506
2.782779
2.775357
2.767327
2.758908
2.750206
2.741313
2.732241
2.723130
2.714026
2.704832
2.695726
2.686526
2.339056
2.336992
2.335013
2.333229
2.331691
2.330461
2.329602
2.329060
2.328914
2.329143
2.329718
2.330621
2.331865
2.333441
2.335393
2.337787
2.340714
2.344298
2.348512
2.353484
2.359202
2.365586
2.372511
2.379905
2.387668
2.395655
2.403693
2.411552
2.419056
2.425849
2.431657
2.436261
2.439425
2.441079
2.441362
2.440469
2.438606
2.435984
2.432823
2.429398
2.425928
2.422611
2.419599
2.417065
2.415119
2.413950
2.413748
2.414706
2.417027
2.420888
2.426532
2.434112
2.443725
2.455382
2.468834
2.483858
2.500156
2.517609
2.536133
2.555708
2.576152
2.597195
2.618422
2.639272
2.659300
2.677948
2.694682
2.709021
2.720906
2.730457
2.737936
2.743482
2.747335
2.749895
2.751153
2.751558
2.751074
2.750050
2.748604
2.746754
2.744554
2.741797
2.738320
2.734131
2.729224
2.723427
2.716669
2.709194
2.701259
2.693003
2.684319
2.675371
2.666314
2.657161
2.648102
2.639098
2.630151
2.621316
2.612526
2.603910
2.341433
2.339297
2.337304
2.335499
2.333941
2.332680
2.331788
2.331266
2.331101
2.331288
2.331812
2.332681
2.333901
2.335438
2.337354
2.339716
2.342631
2.346151
2.350331
2.355268
2.360958
2.367323
2.374258
2.381657
2.389440
2.397430
2.405446
2.413284
2.420737
2.427521
2.433367
2.437995
2.441168
2.442831
2.443111
2.442223
2.440394
2.437787
2.434625
2.431174
2.427695
2.424350
2.421292
2.418673
2.416663
2.415446
2.415205
2.416118
2.418361
2.422144
2.427691
2.435177
2.444705
2.456270
2.469672
2.484684
2.500982
2.518403
2.536881
2.556379
2.576779
2.597777
2.618987
2.639932
2.659971
2.678598
2.695272
2.709615
2.721493
2.731025
2.738440
2.743971
2.747859
2.750359
2.751689
2.752032
2.751632
2.750646
2.749212
2.747361
2.745107
2.742352
2.738971
2.734840
2.729904
2.724106
2.717472
2.710106
2.702153
2.693824
2.685190
2.676359
2.667317
2.658179
2.649078
2.640049
2.631141
2.622302
2.613555
2.604862
2.334196
2.332214
2.330401
2.328730
2.327325
2.326195
2.325410
2.325000
2.324944
2.325275
2.325926
2.326872
2.328121
2.329761
2.331805
2.334274
2.337198
2.340781
2.345078
2.350130
2.355877
2.362232
2.369166
2.376595
2.384405
2.392396
2.400333
2.408135
2.415610
2.422427
2.428188
2.432700
2.435832
2.437517
2.437838
2.436985
2.435216
2.432657
2.429586
2.426243
2.422857
2.419596
2.416647
2.414167
2.412329
2.411232
2.411079
2.412099
2.414502
2.418480
2.424191
2.431831
2.441550
2.453355
2.466970
2.482038
2.498354
2.515853
2.534555
2.554291
2.574838
2.595966
2.617285
2.638368
2.658472
2.677028
2.693609
2.707891
2.719872
2.729436
2.736894
2.742410
2.746284
2.748823
2.750211
2.750515
2.749991
2.748924
2.747537
2.745724
2.743378
2.740530
2.737074
2.732892
2.727832
2.721890
2.715142
2.707712
2.699774
2.691400
2.682621
2.673679
2.664617
2.655451
2.646305
2.637197
2.628179
2.619253
2.610537
2.601941
2.341593
2.339399
2.337358
2.335517
2.333961
2.332695
2.331753
2.331171
2.330984
2.331170
2.331705
2.332578
2.333787
2.335307
2.337208
2.339568
2.342490
2.346053
2.350291
2.355256
2.360936
2.367294
2.374285
2.381755
2.389551
2.397532
2.405585
2.413497
2.420991
2.427775
2.433589
2.438195
2.441364
2.443009
2.443254
2.442297
2.440394
2.437746
2.434583
2.431107
2.427542
2.424122
2.421047
2.418443
2.416439
2.415183
2.414943
2.415838
2.418083
2.421897
2.427487
2.435013
2.444595
2.456284
2.469815
2.484843
2.501140
2.518595
2.537126
2.556667
2.577095
2.598197
2.619474
2.640384
2.660345
2.678825
2.695364
2.709588
2.721459
2.730994
2.738386
2.743864
2.747716
2.750195
2.751489
2.751817
2.751419
2.750455
2.749027
2.747188
2.744947
2.742210
2.738864
2.734748
2.729797
2.723971
2.717312
2.710004
2.702157
2.693836
2.685178
2.676332
2.667339
2.658226
2.649129
2.640139
2.631226
2.622425
2.613743
2.605088
2.333052
2.331057
2.329193
2.327503
2.326049
2.324912
2.324153
2.323703
2.323593
2.323821
2.324436
2.325398
2.326710
2.328318
2.330346
2.332793
2.335772
2.339388
2.343701
2.348766
2.354542
2.360947
2.367976
2.375431
2.383258
2.391310
2.399388
2.407240
2.414710
2.421532
2.427399
2.431999
2.435143
2.436855
2.437180
2.436270
2.434423
2.431847
2.428770
2.425415
2.421999
2.418738
2.415764
2.413219
2.411322
2.410270
2.410184
2.411167
2.413483
2.417448
2.423277
2.431021
2.440783
2.452562
2.466181
2.481368
2.497813
2.515373
2.534019
2.553816
2.574499
2.595748
2.617107
2.638128
2.658274
2.676942
2.693619
2.707931
2.719777
2.729233
2.736626
2.742082
2.745862
2.748304
2.749627
2.749977
2.749522
2.748451
2.746968
2.745102
2.742829
2.740025
2.736531
2.732303
2.727171
2.721220
2.714439
2.707067
2.699113
2.690806
2.682112
2.673212
2.664147
2.654861
2.645699
2.636716
2.627875
2.619017
2.610177
2.601506
2.336391
2.334353
2.332434
2.330730
2.329228
2.327972
2.327083
2.326552
2.326463
2.326726
2.327299
2.328227
2.329496
2.331121
2.333085
2.335447
2.338397
2.342019
2.346317
2.351364
2.357047
2.363415
2.370391
2.377889
2.385723
2.393739
2.401769
2.409658
2.417120
2.423899
2.429710
2.434342
2.437543
2.439211
2.439468
2.438582
2.436771
2.434208
2.431060
2.427629
2.424212
2.420912
2.417912
2.415302
2.413357
2.412250
2.412119
2.413144
2.415459
2.419342
2.425008
2.432657
2.442374
2.454104
2.467631
2.482697
2.499053
2.516568
2.535225
2.554912
2.575440
2.596527
2.617799
2.638787
2.658925
2.677536
2.694080
2.708335
2.720308
2.729928
2.737356
2.742855
2.746739
2.749215
2.750518
2.750860
2.750461
2.749459
2.747852
2.745962
2.743696
2.740937
2.737496
2.733215
2.728162
2.722322
2.715698
2.708308
2.700347
2.691997
2.683317
2.674353
2.665337
2.656251
2.647071
2.637973
2.629063
2.620281
2.611559
2.602799
2.335092
2.332990
2.331052
2.329329
2.327881
2.326692
2.325816
2.325314
2.325163
2.325427
2.326049
2.326989
2.328279
2.329872
2.331846
2.334261
2.337226
2.340859
2.345192
2.350235
2.356034
2.362502
2.369513
2.377006
2.384892
2.392972
2.401051
2.408891
2.416359
2.423192
2.428992
2.433540
2.436642
2.438234
2.438434
2.437484
2.435574
2.432968
2.429860
2.426467
2.422992
2.419641
2.416616
2.414082
2.412182
2.411101
2.410969
2.412000
2.414392
2.418369
2.424161
2.431887
2.441655
2.453491
2.467123
2.482345
2.498827
2.516426
2.535109
2.554846
2.575484
2.596724
2.618078
2.639060
2.659120
2.677661
2.694164
2.708404
2.720106
2.729582
2.736890
2.742353
2.746136
2.748569
2.749793
2.750093
2.749711
2.748664
2.747253
2.745384
2.743085
2.740354
2.736959
2.732750
2.727715
2.721872
2.715252
2.707811
2.699794
2.691472
2.682846
2.673929
2.664859
2.655800
2.646647
2.637581
2.628600
2.619765
2.611020
2.602344
2.333655
2.331639
2.329767
2.328093
2.326677
2.325576
2.324807
2.324406
2.324377
2.324709
2.325351
2.326285
2.327566
2.329204
2.331207
2.333631
2.336627
2.340253
2.344532
2.349515
2.355240
2.361654
2.368591
2.376007
2.383764
2.391721
2.399755
2.407612
2.415115
2.421905
2.427689
2.432270
2.435444
2.437116
2.437438
2.436557
2.434774
2.432262
2.429232
2.425906
2.422487
2.419229
2.416344
2.413898
2.412024
2.410911
2.410774
2.411819
2.414203
2.418176
2.423896
2.431535
2.441204
2.452957
2.466548
2.481656
2.498013
2.515554
2.534228
2.553947
2.574548
2.595728
2.617082
2.638050
2.658138
2.676781
2.693482
2.707811
2.719744
2.729346
2.736803
2.742318
2.746192
2.748763
2.750096
2.750387
2.749852
2.748825
2.747391
2.745517
2.743203
2.740355
2.736839
2.732632
2.727642
2.721726
2.714912
2.707424
2.699521
2.691189
2.682431
2.673431
2.664287
2.655214
2.646106
2.636911
2.627850
2.619003
2.610301
2.601606
2.340871
2.338698
2.336676
2.334857
2.333279
2.332003
2.331070
2.330525
2.330346
2.330536
2.331056
2.331922
2.333128
2.334673
2.336606
2.338978
2.341881
2.345415
2.349651
2.354651
2.360362
2.366738
2.373708
2.381168
2.388981
2.396991
2.405053
2.412950
2.420451
2.427279
2.433109
2.437683
2.440810
2.442461
2.442752
2.441820
2.439882
2.437224
2.434069
2.430615
2.427079
2.423673
2.420589
2.417965
2.415962
2.414759
2.414514
2.415412
2.417678
2.421555
2.427187
2.434704
2.444270
2.455941
2.469450
2.484469
2.500735
2.518195
2.536824
2.556491
2.577030
2.598094
2.619289
2.640143
2.660119
2.678658
2.695230
2.709497
2.721397
2.730943
2.738298
2.743748
2.747544
2.749991
2.751253
2.751578
2.751161
2.750192
2.748787
2.746986
2.744757
2.741990
2.738619
2.734501
2.729572
2.723773
2.717110
2.709747
2.701834
2.693548
2.684939
2.676090
2.667078
2.657955
2.648877
2.639868
2.630946
2.622119
2.613408
2.604769
2.331602
2.329611
2.327732
2.326043
2.324590
2.323485
2.322681
2.322237
2.322154
2.322424
2.323070
2.324097
2.325423
2.327064
2.329087
2.331545
2.334539
2.338158
2.342456
2.347545
2.353347
2.359782
2.366799
2.374252
2.382110
2.390178
2.398221
2.406073
2.413568
2.420433
2.426350
2.430930
2.434060
2.435713
2.436064
2.435219
2.433380
2.430828
2.427761
2.424445
2.421043
2.417738
2.414749
2.412231
2.410377
2.409353
2.409281
2.410336
2.412726
2.416670
2.422444
2.430194
2.440003
2.451811
2.465414
2.480646
2.497185
2.514834
2.533525
2.553337
2.574083
2.595374
2.616759
2.637794
2.657946
2.676564
2.693209
2.707552
2.719422
2.728942
2.736271
2.741741
2.745583
2.748037
2.749328
2.749637
2.749161
2.748092
2.746592
2.744680
2.742358
2.739518
2.736026
2.731789
2.726734
2.720741
2.713969
2.706491
2.698566
2.690194
2.681506
2.672557
2.663454
2.654331
2.645240
2.636229
2.627248
2.618360
2.609549
2.600856
2.336257
2.334259
2.332450
2.330828
2.329437
2.328309
2.327508
2.327095
2.327067
2.327334
2.327917
2.328864
2.330184
2.331825
2.333809
2.336192
2.339121
2.342684
2.346895
2.351879
2.357559
2.363918
2.370828
2.378161
2.385854
2.393768
2.401725
2.409529
2.416934
2.423717
2.429540
2.434119
2.437266
2.438971
2.439314
2.438475
2.436657
2.434123
2.431102
2.427770
2.424397
2.421182
2.418255
2.415759
2.413848
2.412797
2.412689
2.413674
2.415985
2.419900
2.425559
2.433106
2.442685
2.454339
2.467846
2.482868
2.499182
2.516617
2.535152
2.554723
2.575208
2.596299
2.617554
2.638495
2.658599
2.677268
2.693965
2.708355
2.720325
2.729963
2.737401
2.742947
2.746866
2.749432
2.750777
2.751084
2.750681
2.749689
2.748265
2.746390
2.744077
2.741284
2.737868
2.733699
2.728683
2.722766
2.716075
2.708720
2.700704
2.692286
2.683563
2.674635
2.665486
2.656225
2.647091
2.637967
2.628908
2.619974
2.611197
2.602430
2.330829
2.329025
2.327346
2.325742
2.324269
2.323098
2.322448
2.322193
2.322210
2.322423
2.322990
2.324028
2.325498
2.327251
2.329256
2.331589
2.334542
2.338275
2.342765
2.347878
2.353572
2.359866
2.366863
2.374419
2.382330
2.390318
2.398269
2.406071
2.413579
2.420436
2.426193
2.430618
2.433602
2.435187
2.435525
2.434712
2.432856
2.430184
2.427013
2.423705
2.420448
2.417305
2.414340
2.411767
2.409843
2.408885
2.408960
2.410169
2.412584
2.416487
2.422224
2.430072
2.440068
2.451987
2.465585
2.480719
2.497226
2.514974
2.533864
2.553722
2.574412
2.595694
2.617133
2.638314
2.658506
2.677042
2.693459
2.707487
2.719208
2.728731
2.736153
2.741554
2.745269
2.747634
2.748919
2.749322
2.748844
2.747783
2.746297
2.744552
2.742413
2.739569
2.736026
2.731802
2.726709
2.720803
2.714108
2.706682
2.698580
2.690114
2.681490
2.672647
2.663559
2.654314
2.645075
2.635931
2.627060
2.618266
2.609466
2.600588
2.327560
2.325666
2.323906
2.322331
2.321037
2.320079
2.319423
2.319064
2.319025
2.319381
2.320143
2.321205
2.322550
2.324218
2.326278
2.328810
2.331907
2.335590
2.339923
2.344980
2.350794
2.357295
2.364319
2.371717
2.379494
2.387554
2.395658
2.403531
2.410969
2.417751
2.423551
2.428099
2.431220
2.432865
2.433143
2.432265
2.430430
2.427895
2.424912
2.421672
2.418360
2.415088
2.412164
2.409770
2.408041
2.407070
2.407029
2.408142
2.410635
2.414709
2.420573
2.428411
2.438295
2.450221
2.463986
2.479297
2.495943
2.513675
2.532480
2.552391
2.573262
2.594696
2.616171
2.637247
2.657368
2.676024
2.692660
2.706859
2.718617
2.728004
2.735287
2.740744
2.744648
2.747145
2.748326
2.748543
2.748078
2.747112
2.745633
2.743750
2.741450
2.738598
2.735053
2.730744
2.725604
2.719632
2.712851
2.705407
2.697336
2.688909
2.680261
2.671344
2.662200
2.652940
2.643807
2.634717
2.625630
2.616695
2.607924
2.599231
2.329093
2.327076
2.325230
2.323628
2.322308
2.321229
2.320475
2.320075
2.320061
2.320440
2.321139
2.322096
2.323382
2.325049
2.327143
2.329703
2.332747
2.336414
2.340798
2.345921
2.351796
2.358375
2.365507
2.373078
2.380935
2.388967
2.397087
2.405035
2.412552
2.419290
2.424954
2.429455
2.432541
2.434085
2.434205
2.433142
2.431255
2.428693
2.425583
2.422199
2.418763
2.415470
2.412459
2.409973
2.408173
2.407176
2.407129
2.408269
2.410828
2.414950
2.420832
2.428745
2.438768
2.450846
2.464709
2.480109
2.496845
2.514700
2.533621
2.553600
2.574475
2.595934
2.617482
2.638573
2.658600
2.677022
2.693368
2.707397
2.718995
2.728305
2.735505
2.740854
2.744546
2.746852
2.748015
2.748275
2.747781
2.746761
2.745395
2.743666
2.741429
2.738562
2.735074
2.730867
2.725829
2.719888
2.713151
2.705730
2.697769
2.689391
2.680727
2.671828
2.662749
2.653645
2.644561
2.635482
2.626445
2.617520
2.608806
2.600111
2.332320
2.330508
2.328845
2.327349
2.326043
2.325006
2.324282
2.323914
2.323949
2.324333
2.325030
2.326040
2.327361
2.329009
2.331033
2.333491
2.336498
2.340084
2.344316
2.349255
2.354909
2.361205
2.368046
2.375337
2.383003
2.390864
2.398805
2.406585
2.413985
2.420742
2.426566
2.431184
2.434371
2.436116
2.436554
2.435831
2.434102
2.431629
2.428719
2.425557
2.422239
2.419052
2.416247
2.413881
2.412109
2.411042
2.410968
2.412053
2.414376
2.418257
2.423908
2.431491
2.441117
2.452762
2.466244
2.481239
2.497455
2.514858
2.533431
2.553097
2.573645
2.594786
2.616083
2.637125
2.657343
2.676125
2.692901
2.707340
2.719442
2.729219
2.736806
2.742371
2.746292
2.748900
2.750287
2.750669
2.750217
2.749182
2.747713
2.745795
2.743409
2.740522
2.736983
2.732710
2.727688
2.721801
2.715027
2.707489
2.699412
2.691020
2.682264
2.673238
2.664039
2.654801
2.645565
2.636347
2.627263
2.618323
2.609519
2.600725
2.335708
2.333698
2.331821
2.330194
2.328796
2.327716
2.326945
2.326515
2.326444
2.326766
2.327413
2.328361
2.329612
2.331235
2.333257
2.335701
2.338634
2.342181
2.346424
2.351389
2.357090
2.363437
2.370355
2.377683
2.385384
2.393336
2.401323
2.409089
2.416485
2.423257
2.429079
2.433674
2.436826
2.438552
2.438925
2.438103
2.436283
2.433753
2.430713
2.427429
2.424048
2.420800
2.417846
2.415375
2.413520
2.412438
2.412289
2.413306
2.415654
2.419569
2.425223
2.432796
2.442435
2.454071
2.467513
2.482486
2.498792
2.516274
2.534849
2.554490
2.575027
2.596141
2.617419
2.638370
2.658463
2.677148
2.693848
2.708240
2.720188
2.729793
2.737267
2.742867
2.746794
2.749278
2.750634
2.751036
2.750623
2.749556
2.748045
2.746217
2.743919
2.741096
2.737647
2.733472
2.728445
2.722495
2.715788
2.708391
2.700413
2.692019
2.683342
2.674449
2.665319
2.656126
2.646926
2.637717
2.628599
2.619647
2.610953
2.602306
2.330167
2.328250
2.326483
2.324921
2.323610
2.322561
2.321830
2.321447
2.321436
2.321789
2.322443
2.323458
2.324811
2.326480
2.328553
2.331084
2.334121
2.337774
2.342086
2.347153
2.352925
2.359332
2.366348
2.373830
2.381649
2.389651
2.397674
2.405554
2.413001
2.419759
2.425552
2.430072
2.433151
2.434747
2.435019
2.434084
2.432206
2.429625
2.426600
2.423305
2.419961
2.416743
2.413824
2.411342
2.409516
2.408522
2.408516
2.409617
2.412097
2.416157
2.421979
2.429734
2.439566
2.451483
2.465229
2.480460
2.497007
2.514747
2.533614
2.553522
2.574236
2.595544
2.617006
2.638060
2.658113
2.676630
2.693193
2.707390
2.719194
2.728690
2.735989
2.741330
2.745059
2.747555
2.748801
2.749074
2.748594
2.747654
2.746267
2.744436
2.742128
2.739245
2.735749
2.731534
2.726537
2.720634
2.713863
2.706354
2.698354
2.689951
2.681223
2.672308
2.663257
2.654092
2.644857
2.635690
2.626701
2.617817
2.609033
2.600307
2.327401
2.325455
2.323697
2.322190
2.320938
2.319941
2.319213
2.318815
2.318845
2.319266
2.320024
2.321049
2.322364
2.324058
2.326182
2.328718
2.331768
2.335432
2.339767
2.344870
2.350670
2.357138
2.364164
2.371628
2.379458
2.387483
2.395524
2.403407
2.410868
2.417625
2.423381
2.427912
2.431079
2.432759
2.433048
2.432150
2.430328
2.427810
2.424799
2.421496
2.418177
2.414988
2.412107
2.409682
2.407897
2.406891
2.406899
2.408072
2.410613
2.414675
2.420498
2.428308
2.438222
2.450147
2.463887
2.479183
2.495782
2.513520
2.532398
2.552382
2.573249
2.594637
2.616108
2.637232
2.657407
2.675999
2.692570
2.706838
2.718653
2.728077
2.735310
2.740719
2.744559
2.747015
2.748226
2.748505
2.748032
2.747015
2.745580
2.743743
2.741404
2.738467
2.734972
2.730764
2.725634
2.719563
2.712751
2.705347
2.697377
2.688901
2.680145
2.671154
2.662054
2.652889
2.643694
2.634605
2.625570
2.616722
2.607921
2.599171
2.328764
2.326744
2.324882
2.323247
2.321878
2.320804
2.320032
2.319621
2.319589
2.319939
2.320612
2.321547
2.322824
2.324508
2.326642
2.329192
2.332242
2.335868
2.340258
2.345454
2.351355
2.357913
2.365019
2.372576
2.380477
2.388567
2.396692
2.404691
2.412250
2.419054
2.424746
2.429212
2.432242
2.433818
2.434018
2.433004
2.431036
2.428376
2.425286
2.421943
2.418485
2.415134
2.412151
2.409679
2.407876
2.406857
2.406822
2.407956
2.410448
2.414591
2.420541
2.428486
2.438495
2.450566
2.464496
2.479927
2.496642
2.514501
2.533469
2.553573
2.574501
2.595941
2.617351
2.638319
2.658371
2.676905
2.693338
2.707349
2.718947
2.728295
2.735535
2.740735
2.744343
2.746625
2.747835
2.748104
2.747622
2.746681
2.745245
2.743439
2.741191
2.738379
2.734886
2.730589
2.725574
2.719743
2.712990
2.705519
2.697522
2.689220
2.680614
2.671682
2.662619
2.653437
2.644313
2.635251
2.626258
2.617399
2.608681
2.599978
2.332328
2.330428
2.328744
2.327273
2.326010
2.324944
2.324214
2.323882
2.323972
2.324353
2.325036
2.326028
2.327369
2.329047
2.331059
2.333489
2.336451
2.340044
2.344279
2.349237
2.354859
2.361133
2.367965
2.375292
2.382962
2.390850
2.398766
2.406542
2.413914
2.420640
2.426451
2.431128
2.434365
2.436103
2.436513
2.435790
2.434098
2.431663
2.428733
2.425505
2.422218
2.419064
2.416249
2.413869
2.412060
2.411001
2.410955
2.412055
2.414413
2.418291
2.423915
2.431484
2.441085
2.452667
2.466105
2.481123
2.497419
2.514885
2.533453
2.553113
2.573641
2.594749
2.616087
2.637182
2.657397
2.676134
2.692875
2.707373
2.719465
2.729193
2.736760
2.742346
2.746318
2.748892
2.750293
2.750666
2.750164
2.749098
2.747602
2.745726
2.743363
2.740526
2.737011
2.732750
2.727652
2.721764
2.715065
2.707578
2.699490
2.691005
2.682243
2.673247
2.664109
2.654799
2.645498
2.636258
2.627193
2.618290
2.609466
2.600740
2.110474
2.109743
2.109133
2.108697
2.108481
2.108508
2.108831
2.109496
2.110532
2.111965
2.113856
2.116252
2.119163
2.122618
2.126633
2.131215
2.136398
2.142165
2.148491
2.155404
2.162907
2.170990
2.179609
2.188725
2.198276
2.208162
2.218215
2.228277
2.238185
2.247756
2.256696
2.264795
2.271787
2.277487
2.281743
2.284543
2.285933
2.286077
2.285213
2.283614
2.281637
2.279654
2.277890
2.276615
2.276045
2.276400
2.277894
2.280670
2.284973
2.291070
2.299162
2.309532
2.322332
2.337653
2.355219
2.374715
2.395787
2.418230
2.441911
2.466842
2.492765
2.519374
2.546050
2.572151
2.596962
2.619750
2.639976
2.657138
2.671199
2.682221
2.690556
2.696555
2.700441
2.702518
2.702942
2.702025
2.699794
2.696241
2.691575
2.685890
2.679315
2.671996
2.664053
2.655685
2.647040
2.638230
2.629213
2.620019
2.610702
2.601303
2.591822
2.582193
2.572580
2.563089
2.553754
2.544565
2.535638
2.527046
2.518736
2.510535
2.107234
2.106362
2.105643
2.105097
2.104747
2.104635
2.104823
2.105381
2.106344
2.107743
2.109605
2.111952
2.114827
2.118301
2.122416
2.127085
2.132313
2.138100
2.144512
2.151584
2.159245
2.167462
2.176198
2.185444
2.195179
2.205234
2.215431
2.225619
2.235684
2.245417
2.254529
2.262717
2.269712
2.275393
2.279661
2.282391
2.283679
2.283733
2.282771
2.281111
2.279048
2.276959
2.275106
2.273744
2.273098
2.273427
2.274915
2.277698
2.282022
2.288160
2.296350
2.306811
2.319780
2.335289
2.353086
2.372855
2.394182
2.416881
2.440752
2.465853
2.492011
2.518798
2.545647
2.571901
2.596791
2.619557
2.639663
2.656782
2.670710
2.681553
2.689743
2.695615
2.699379
2.701449
2.701704
2.700429
2.698066
2.694537
2.689946
2.684149
2.677404
2.670079
2.662199
2.653830
2.645147
2.636243
2.627301
2.618232
2.608956
2.599608
2.590091
2.580524
2.571021
2.561672
2.552392
2.543273
2.534514
2.526067
2.517781
2.509666
2.094003
2.093525
2.093152
2.092921
2.092889
2.093095
2.093618
2.094487
2.095720
2.097328
2.099365
2.101904
2.104993
2.108617
2.112796
2.117515
2.122848
2.128725
2.135158
2.142220
2.149866
2.158143
2.166951
2.176209
2.185878
2.195846
2.206045
2.216296
2.226390
2.236071
2.245120
2.253326
2.260407
2.266142
2.270460
2.273318
2.274796
2.275028
2.274229
2.272722
2.270875
2.268979
2.267332
2.266171
2.265742
2.266251
2.267928
2.270941
2.275452
2.281709
2.290032
2.300698
2.313877
2.329602
2.347566
2.367456
2.388981
2.411965
2.436259
2.461735
2.488188
2.515322
2.542484
2.568962
2.594041
2.616994
2.637193
2.654285
2.668190
2.679080
2.687199
2.692926
2.696655
2.698636
2.698967
2.697783
2.695218
2.691486
2.686738
2.680933
2.674112
2.666588
2.658610
2.650197
2.641418
2.632440
2.623380
2.614179
2.604782
2.595247
2.585619
2.576003
2.566426
2.556937
2.547555
2.538330
2.529445
2.520803
2.512335
2.504100
2.094939
2.094288
2.093768
2.093426
2.093287
2.093384
2.093757
2.094495
2.095663
2.097228
2.099220
2.101710
2.104745
2.108366
2.112549
2.117244
2.122549
2.128502
2.135050
2.142167
2.149846
2.158113
2.166982
2.176364
2.186154
2.196205
2.206437
2.216722
2.226898
2.236693
2.245763
2.253973
2.261073
2.266857
2.271152
2.273934
2.275309
2.275463
2.274614
2.273032
2.271084
2.269071
2.267363
2.266174
2.265684
2.266132
2.267709
2.270673
2.275190
2.281498
2.289848
2.300539
2.313769
2.329557
2.347649
2.367693
2.389295
2.412287
2.436581
2.462115
2.488655
2.515801
2.542957
2.569362
2.594336
2.617240
2.637501
2.654599
2.668365
2.679104
2.687244
2.693008
2.696694
2.698557
2.698846
2.697601
2.695051
2.691291
2.686373
2.680476
2.673806
2.666410
2.658369
2.649887
2.641207
2.632317
2.623228
2.614037
2.604766
2.595324
2.585744
2.576060
2.566446
2.557046
2.547805
2.538748
2.529850
2.521191
2.512819
2.504601
2.107963
2.107381
2.106934
2.106661
2.106581
2.106726
2.107144
2.107896
2.109012
2.110535
2.112498
2.114960
2.117962
2.121467
2.125510
2.130098
2.135269
2.141020
2.147307
2.154184
2.161662
2.169711
2.178310
2.187383
2.196859
2.206628
2.216584
2.226629
2.236522
2.246062
2.255019
2.263124
2.270132
2.275834
2.280136
2.282986
2.284451
2.284691
2.283932
2.282463
2.280565
2.278632
2.276945
2.275770
2.275303
2.275722
2.277238
2.280038
2.284328
2.290372
2.298425
2.308742
2.321470
2.336668
2.354151
2.373594
2.394621
2.417040
2.440763
2.465627
2.491537
2.518150
2.544960
2.571238
2.596169
2.619161
2.639476
2.656809
2.670939
2.681987
2.690356
2.696334
2.700400
2.702536
2.702955
2.701917
2.699593
2.696057
2.691309
2.685545
2.678932
2.671608
2.663681
2.655292
2.646530
2.637659
2.628586
2.619414
2.610081
2.600625
2.591075
2.581415
2.571824
2.562268
2.552924
2.543760
2.534932
2.526266
2.517779
2.509564
2.109640
2.108934
2.108312
2.107866
2.107637
2.107670
2.107998
2.108644
2.109688
2.111131
2.113045
2.115449
2.118353
2.121790
2.125839
2.130465
2.135674
2.141397
2.147696
2.154636
2.162166
2.170258
2.178896
2.188034
2.197583
2.207429
2.217458
2.227544
2.237493
2.247074
2.256070
2.264201
2.271199
2.276854
2.281120
2.283955
2.285371
2.285525
2.284644
2.283063
2.281130
2.279132
2.277360
2.276071
2.275521
2.275911
2.277400
2.280192
2.284481
2.290566
2.298684
2.309053
2.321874
2.337209
2.354829
2.374390
2.395484
2.417875
2.441516
2.466401
2.492378
2.519035
2.545793
2.571898
2.596676
2.619485
2.639688
2.656956
2.671035
2.682118
2.690446
2.696414
2.700256
2.702313
2.702835
2.701863
2.699567
2.696016
2.691355
2.685739
2.679081
2.671654
2.663697
2.655343
2.646747
2.637929
2.628910
2.619725
2.610336
2.600903
2.591452
2.581878
2.572292
2.562748
2.553418
2.544273
2.535351
2.526713
2.518296
2.510091
2.106561
2.105705
2.104957
2.104391
2.104019
2.103927
2.104143
2.104733
2.105683
2.107061
2.108897
2.111252
2.114175
2.117668
2.121749
2.126365
2.131594
2.137458
2.143915
2.150952
2.158562
2.166788
2.175603
2.184908
2.194618
2.204634
2.214828
2.225072
2.235185
2.244923
2.253965
2.262117
2.269189
2.274890
2.279108
2.281844
2.283197
2.283293
2.282326
2.280615
2.278553
2.276459
2.274616
2.273297
2.272687
2.273009
2.274473
2.277286
2.281641
2.287771
2.295954
2.306453
2.319428
2.334923
2.352723
2.372483
2.393855
2.416565
2.440486
2.465620
2.491767
2.518570
2.545444
2.571733
2.596691
2.619516
2.639514
2.656558
2.670479
2.681423
2.689593
2.695393
2.699153
2.701180
2.701532
2.700394
2.698020
2.694392
2.689667
2.683887
2.677164
2.669855
2.661898
2.653517
2.644858
2.636050
2.627153
2.617988
2.608667
2.599228
2.589800
2.580315
2.570777
2.561330
2.552136
2.543143
2.534314
2.525689
2.517315
2.509316
2.090721
2.090308
2.090022
2.089864
2.089884
2.090156
2.090706
2.091605
2.092872
2.094525
2.096653
2.099272
2.102396
2.106046
2.110247
2.114996
2.120324
2.126249
2.132738
2.139818
2.147455
2.155688
2.164494
2.173789
2.183480
2.193463
2.203643
2.213903
2.223998
2.233690
2.242735
2.250954
2.258103
2.263933
2.268253
2.271054
2.272500
2.272781
2.272083
2.270659
2.268834
2.266947
2.265340
2.264244
2.263883
2.264457
2.266144
2.269136
2.273677
2.280001
2.288385
2.299094
2.312330
2.328099
2.346146
2.366125
2.387705
2.410738
2.435059
2.460597
2.487155
2.514380
2.541639
2.568227
2.593333
2.616276
2.636473
2.653551
2.667516
2.678389
2.686498
2.692263
2.696035
2.697987
2.698292
2.697146
2.694655
2.690887
2.685934
2.680020
2.673218
2.665722
2.657646
2.649078
2.640330
2.631406
2.622362
2.613126
2.603717
2.594159
2.584466
2.574744
2.565118
2.555646
2.546322
2.537171
2.528249
2.519500
2.510990
2.502703
2.093837
2.093213
2.092733
2.092407
2.092256
2.092352
2.092768
2.093544
2.094697
2.096226
2.098223
2.100749
2.103856
2.107470
2.111625
2.116354
2.121696
2.127630
2.134148
2.141276
2.149026
2.157367
2.166220
2.175528
2.185276
2.195343
2.205649
2.215971
2.226094
2.235833
2.244974
2.253249
2.260360
2.266095
2.270365
2.273172
2.274575
2.274754
2.273904
2.272308
2.270354
2.268403
2.266699
2.265480
2.264985
2.265466
2.267122
2.270101
2.274563
2.280886
2.289289
2.299994
2.313236
2.329030
2.347125
2.367139
2.388745
2.411783
2.436160
2.461735
2.488330
2.515520
2.542733
2.569272
2.594329
2.617236
2.637348
2.654330
2.668059
2.678854
2.686994
2.692718
2.696368
2.698193
2.698484
2.697279
2.694777
2.691108
2.686219
2.680269
2.673490
2.666049
2.658026
2.649517
2.640766
2.631881
2.622864
2.613709
2.604378
2.594904
2.585266
2.575650
2.566091
2.556728
2.547460
2.538280
2.529422
2.520799
2.512401
2.504091
2.107985
2.107422
2.106979
2.106671
2.106567
2.106716
2.107143
2.107932
2.109071
2.110571
2.112528
2.114995
2.117974
2.121483
2.125523
2.130104
2.135287
2.141012
2.147294
2.154185
2.161635
2.169667
2.178248
2.187295
2.196802
2.206587
2.216576
2.226615
2.236486
2.246022
2.254979
2.263088
2.270117
2.275835
2.280134
2.282979
2.284432
2.284682
2.283929
2.282431
2.280566
2.278684
2.277027
2.275828
2.275327
2.275714
2.277213
2.280014
2.284322
2.290398
2.298446
2.308747
2.321504
2.336777
2.354263
2.373670
2.394666
2.417056
2.440741
2.465622
2.491536
2.518148
2.544911
2.571184
2.596154
2.619112
2.639418
2.656747
2.670921
2.682018
2.690335
2.696309
2.700322
2.702526
2.702986
2.701954
2.699573
2.696040
2.691352
2.685624
2.678998
2.671606
2.663717
2.655315
2.646585
2.637638
2.628647
2.619583
2.610204
2.600611
2.590997
2.581392
2.571799
2.562274
2.552940
2.543780
2.534821
2.526176
2.517705
2.509559
2.102926
2.102459
2.102101
2.101892
2.101880
2.102108
2.102605
2.103439
2.104612
2.106226
2.108296
2.110813
2.113789
2.117313
2.121414
2.126091
2.131326
2.137114
2.143427
2.150359
2.157844
2.165932
2.174539
2.183619
2.193125
2.202950
2.212963
2.223011
2.232921
2.242471
2.251411
2.259502
2.266524
2.272243
2.276564
2.279451
2.280941
2.281188
2.280435
2.278982
2.277204
2.275329
2.273696
2.272580
2.272165
2.272662
2.274258
2.277126
2.281506
2.287636
2.295769
2.306206
2.319092
2.334428
2.352033
2.371614
2.392805
2.415353
2.439146
2.464192
2.490312
2.517068
2.543917
2.570192
2.595203
2.618200
2.638498
2.655720
2.669839
2.680947
2.689343
2.695280
2.699113
2.701178
2.701617
2.700696
2.698410
2.694815
2.690008
2.684211
2.677547
2.670082
2.662075
2.653664
2.644981
2.636108
2.627070
2.617798
2.608365
2.598863
2.589297
2.579635
2.569906
2.560336
2.551014
2.541873
2.532914
2.524161
2.515658
2.507451
2.094030
2.093572
2.093483
2.093574
2.093642
2.093737
2.094146
2.095162
2.096646
2.098428
2.100419
2.102818
2.105892
2.109669
2.113977
2.118660
2.123780
2.129531
2.136018
2.143193
2.150856
2.158923
2.167457
2.176612
2.186333
2.196368
2.206484
2.216493
2.226382
2.236051
2.245216
2.253484
2.260488
2.266067
2.270366
2.273379
2.275048
2.275371
2.274573
2.273043
2.271262
2.269547
2.268080
2.267052
2.266563
2.266994
2.268701
2.271838
2.276416
2.282608
2.290761
2.301315
2.314440
2.330119
2.348023
2.367727
2.389009
2.411775
2.435989
2.461460
2.487894
2.514870
2.541925
2.568434
2.593637
2.616768
2.637095
2.654241
2.668206
2.679180
2.687509
2.693364
2.697061
2.699006
2.699407
2.698412
2.695990
2.692194
2.687257
2.681279
2.674588
2.667260
2.659302
2.650755
2.641850
2.632836
2.623741
2.614571
2.605190
2.595642
2.585948
2.576233
2.566610
2.557079
2.547736
2.538477
2.529433
2.520669
2.512239
2.504062
2.096102
2.095797
2.095593
2.095555
2.095677
2.096037
2.096673
2.097662
2.098987
2.100700
2.102847
2.105463
2.108557
2.112169
2.116318
2.121010
2.126244
2.132027
2.138385
2.145347
2.152874
2.160978
2.169584
2.178665
2.188158
2.197994
2.208038
2.218109
2.228024
2.237594
2.246559
2.254670
2.261704
2.267450
2.271834
2.274796
2.276364
2.276720
2.276090
2.274750
2.273045
2.271264
2.269724
2.268687
2.268368
2.268952
2.270627
2.273597
2.278061
2.284281
2.292482
2.302972
2.315925
2.331378
2.349088
2.368725
2.389974
2.412630
2.436577
2.461815
2.488124
2.515090
2.542113
2.568560
2.593704
2.616808
2.637186
2.654471
2.668570
2.679630
2.688012
2.693977
2.697835
2.699850
2.700346
2.699331
2.696844
2.693135
2.688382
2.682580
2.675841
2.668331
2.660233
2.651678
2.642870
2.633943
2.624847
2.615574
2.606133
2.596593
2.586911
2.577154
2.567485
2.557941
2.548551
2.539254
2.530208
2.521458
2.512913
2.504642
2.099879
2.099336
2.098936
2.098702
2.098631
2.098809
2.099274
2.100111
2.101285
2.102870
2.104881
2.107394
2.110439
2.113985
2.118112
2.122799
2.128077
2.133917
2.140262
2.147236
2.154814
2.162945
2.171634
2.180822
2.190416
2.200315
2.210410
2.220567
2.230561
2.240141
2.249131
2.257309
2.264382
2.270136
2.274477
2.277368
2.278834
2.279066
2.278314
2.276852
2.275002
2.273075
2.271427
2.270306
2.269873
2.270350
2.271958
2.274857
2.279245
2.285411
2.293637
2.304176
2.317159
2.332634
2.350392
2.370051
2.391322
2.413983
2.437954
2.463146
2.489368
2.516264
2.543306
2.569744
2.594809
2.617814
2.638060
2.655245
2.669235
2.680286
2.688582
2.694486
2.698286
2.700303
2.700710
2.699639
2.697223
2.693580
2.688748
2.682897
2.676144
2.668744
2.660802
2.652377
2.643687
2.634699
2.625613
2.616407
2.607067
2.597548
2.587855
2.578209
2.568577
2.559080
2.549797
2.540658
2.531669
2.522933
2.514514
2.506376
2.101461
2.101050
2.100862
2.100790
2.100805
2.100999
2.101497
2.102445
2.103793
2.105485
2.107494
2.109945
2.112972
2.116609
2.120798
2.125443
2.130569
2.136281
2.142628
2.149631
2.157153
2.165156
2.173660
2.182691
2.192239
2.202079
2.212052
2.222024
2.231861
2.241415
2.250433
2.258596
2.265613
2.271289
2.275586
2.278509
2.280084
2.280414
2.279691
2.278241
2.276441
2.274651
2.273138
2.272071
2.271658
2.272116
2.273712
2.276657
2.281085
2.287211
2.295296
2.305684
2.318538
2.333949
2.351579
2.371101
2.392167
2.414625
2.438467
2.463597
2.489794
2.516581
2.543418
2.569711
2.594756
2.617826
2.638188
2.655428
2.669530
2.680690
2.689164
2.695216
2.699085
2.701136
2.701592
2.700580
2.698182
2.694580
2.689817
2.683995
2.677309
2.669921
2.661933
2.653464
2.644665
2.635706
2.626635
2.617475
2.608084
2.598488
2.588819
2.579134
2.569557
2.559993
2.550552
2.541342
2.532316
2.523570
2.515084
2.506930
2.102028
2.101532
2.101177
2.100990
2.100994
2.101225
2.101735
2.102592
2.103805
2.105406
2.107436
2.109958
2.112999
2.116539
2.120650
2.125301
2.130534
2.136316
2.142633
2.149568
2.157073
2.165155
2.173776
2.182887
2.192420
2.202234
2.212215
2.222258
2.232178
2.241750
2.250712
2.258822
2.265840
2.271558
2.275915
2.278803
2.280246
2.280505
2.279791
2.278377
2.276571
2.274709
2.273135
2.272032
2.271582
2.272069
2.273701
2.276616
2.280989
2.287141
2.295329
2.305773
2.318637
2.334027
2.351696
2.371243
2.392392
2.414915
2.438779
2.463830
2.489961
2.516783
2.543691
2.570030
2.595011
2.618012
2.638258
2.655444
2.669569
2.680748
2.689173
2.695101
2.698953
2.700985
2.701441
2.700400
2.698106
2.694555
2.689795
2.683998
2.677285
2.669857
2.661867
2.653416
2.644731
2.635759
2.626619
2.617401
2.608059
2.598589
2.588962
2.579256
2.569604
2.560028
2.550643
2.541517
2.532513
2.523737
2.515217
2.506971
2.091680
2.091322
2.091072
2.090972
2.091087
2.091440
2.092033
2.092982
2.094307
2.096031
2.098161
2.100771
2.103880
2.107505
2.111683
2.116447
2.121801
2.127675
2.134093
2.141118
2.148728
2.156915
2.165609
2.174782
2.184384
2.194312
2.204450
2.214625
2.224644
2.234300
2.243344
2.251549
2.258627
2.264390
2.268746
2.271660
2.273215
2.273553
2.272896
2.271521
2.269759
2.267968
2.266456
2.265407
2.265050
2.265629
2.267361
2.270407
2.274929
2.281177
2.289500
2.300125
2.313222
2.328840
2.346732
2.366573
2.388034
2.410900
2.435078
2.460541
2.487085
2.514315
2.541534
2.568038
2.593156
2.616188
2.636519
2.653691
2.667618
2.678595
2.686899
2.692807
2.696589
2.698564
2.698864
2.697696
2.695186
2.691510
2.686657
2.680706
2.673942
2.666396
2.658357
2.649883
2.641145
2.632163
2.622982
2.613706
2.604286
2.594746
2.585072
2.575362
2.565639
2.556019
2.546621
2.537465
2.528526
2.519728
2.511186
2.502951
2.094722
2.094503
2.094243
2.094064
2.094205
2.094737
2.095498
2.096426
2.097616
2.099283
2.101512
2.104248
2.107359
2.110868
2.114943
2.119691
2.125090
2.130989
2.137311
2.144163
2.151632
2.159801
2.168528
2.177639
2.187060
2.196779
2.206795
2.216973
2.226976
2.236548
2.245476
2.253567
2.260654
2.266510
2.270968
2.273877
2.275335
2.275638
2.275061
2.273814
2.272124
2.270284
2.268736
2.267745
2.267504
2.268182
2.269849
2.272747
2.277161
2.283421
2.291755
2.302315
2.315250
2.330671
2.348384
2.368108
2.389447
2.412161
2.436155
2.461363
2.487658
2.514720
2.541847
2.568288
2.593310
2.616330
2.636758
2.654130
2.668307
2.679435
2.687752
2.693661
2.697514
2.699588
2.700039
2.698899
2.696409
2.692761
2.688025
2.682166
2.675363
2.667817
2.659741
2.651282
2.642568
2.633605
2.624347
2.614991
2.605602
2.596127
2.586459
2.576639
2.566841
2.557257
2.547877
2.538688
2.529684
2.520875
2.512325
2.504028
2.099903
2.099355
2.098942
2.098680
2.098600
2.098793
2.099278
2.100077
2.101257
2.102841
2.104881
2.107382
2.110395
2.113938
2.118077
2.122767
2.128030
2.133856
2.140241
2.147233
2.154805
2.162954
2.171615
2.180759
2.190349
2.200271
2.210372
2.220513
2.230479
2.240096
2.249135
2.257317
2.264383
2.270126
2.274438
2.277355
2.278860
2.279091
2.278322
2.276840
2.275008
2.273118
2.271457
2.270307
2.269866
2.270340
2.271946
2.274864
2.279263
2.285451
2.293661
2.304156
2.317117
2.332560
2.350300
2.370019
2.391344
2.414006
2.437986
2.463206
2.489440
2.516318
2.543239
2.569631
2.594664
2.617669
2.638004
2.655221
2.669221
2.680257
2.688627
2.694544
2.698365
2.700365
2.700748
2.699617
2.697131
2.693494
2.688727
2.682946
2.676237
2.668803
2.660829
2.652432
2.643690
2.634672
2.625555
2.616356
2.607013
2.597497
2.587856
2.578263
2.568694
2.559125
2.549715
2.540510
2.531616
2.522964
2.514518
2.506357
2.100799
2.100386
2.100119
2.100027
2.100085
2.100362
2.100905
2.101798
2.103063
2.104736
2.106828
2.109381
2.112412
2.115975
2.120102
2.124769
2.129998
2.135781
2.142110
2.149004
2.156469
2.164533
2.173124
2.182159
2.191596
2.201373
2.211402
2.221482
2.231375
2.240909
2.249831
2.257936
2.264967
2.270704
2.275067
2.277991
2.279531
2.279837
2.279172
2.277802
2.276056
2.274268
2.272684
2.271587
2.271239
2.271794
2.273400
2.276272
2.280646
2.286821
2.295018
2.305418
2.318296
2.333657
2.351244
2.370762
2.391861
2.414368
2.438198
2.463269
2.489418
2.516201
2.543056
2.569431
2.594532
2.617561
2.637939
2.655288
2.669445
2.680554
2.688921
2.694969
2.698942
2.701061
2.701476
2.700425
2.698084
2.694494
2.689687
2.683872
2.677201
2.669784
2.661769
2.653274
2.644577
2.635541
2.626427
2.617131
2.607705
2.598191
2.588578
2.578938
2.569184
2.559572
2.550198
2.541057
2.532055
2.523252
2.514747
2.506526
