xbip_utils_v3_0_vh_rfs.vhd,vhdl,xbip_utils_v3_0_8,../../../ipstatic/hdl/xbip_utils_v3_0_vh_rfs.vhd,
c_reg_fd_v12_0_vh_rfs.vhd,vhdl,c_reg_fd_v12_0_4,../../../ipstatic/hdl/c_reg_fd_v12_0_vh_rfs.vhd,
xbip_dsp48_wrapper_v3_0_vh_rfs.vhd,vhdl,xbip_dsp48_wrapper_v3_0_4,../../../ipstatic/hdl/xbip_dsp48_wrapper_v3_0_vh_rfs.vhd,
xbip_pipe_v3_0_vh_rfs.vhd,vhdl,xbip_pipe_v3_0_4,../../../ipstatic/hdl/xbip_pipe_v3_0_vh_rfs.vhd,
xbip_dsp48_addsub_v3_0_vh_rfs.vhd,vhdl,xbip_dsp48_addsub_v3_0_4,../../../ipstatic/hdl/xbip_dsp48_addsub_v3_0_vh_rfs.vhd,
xbip_addsub_v3_0_vh_rfs.vhd,vhdl,xbip_addsub_v3_0_4,../../../ipstatic/hdl/xbip_addsub_v3_0_vh_rfs.vhd,
c_addsub_v12_0_vh_rfs.vhd,vhdl,c_addsub_v12_0_11,../../../ipstatic/hdl/c_addsub_v12_0_vh_rfs.vhd,
adder_64bit.vhd,vhdl,xil_defaultlib,../../../../EMSC.srcs/sources_1/ip/adder_64bit/sim/adder_64bit.vhd,
