verilog xil_defaultlib --include "../../../../project_4.srcs/sources_1/bd/design_1/ipshared/ec67/hdl" --include "../../../../project_4.srcs/sources_1/bd/design_1/ipshared/02c8/hdl/verilog" --include "../../../../project_4.srcs/sources_1/bd/design_1/ipshared/1313/hdl" --include "../../../../project_4.srcs/sources_1/bd/design_1/ip/design_1_cubedma_top_0_0/ip/axi_protocol_converter_s2mm/hdl" --include "../../../../project_4.srcs/sources_1/bd/design_1/ip/design_1_cubedma_top_0_0/ip/axi_protocol_converter_mm2s/hdl" \
"../../../bd/design_1/ip/design_1_processing_system7_0_0/sim/design_1_processing_system7_0_0.v" \
"../../../bd/design_1/ip/design_1_cubedma_top_0_0/ip/tinymover_fifo/sim/tinymover_fifo.v" \
"../../../bd/design_1/ip/design_1_cubedma_top_0_0/ip/unpacker_fifo/sim/unpacker_fifo.v" \
"../../../bd/design_1/ip/design_1_cubedma_top_0_0/ip/axi_protocol_converter_s2mm/sim/axi_protocol_converter_s2mm.v" \
"../../../bd/design_1/ip/design_1_cubedma_top_0_0/ip/axi_protocol_converter_mm2s/sim/axi_protocol_converter_mm2s.v" \
"../../../bd/design_1/ip/design_1_xlconcat_0_0/sim/design_1_xlconcat_0_0.v" \
"../../../bd/design_1/ip/design_1_xbar_0/sim/design_1_xbar_0.v" \
"../../../bd/design_1/ip/design_1_auto_pc_0/sim/design_1_auto_pc_0.v" \

verilog xil_defaultlib "glbl.v"

nosort
