# compile vhdl design source files
vhdl xil_defaultlib  \
"../../../../EMSC_Different_Approach_Reg_Interface.srcs/sources_1/new/b_ram.vhd" \
"../../../../EMSC_Different_Approach_Reg_Interface.srcs/sources_1/new/register_interface.vhd" \
"../../../../EMSC_Different_Approach_Reg_Interface.srcs/sources_1/new/b_ram_bank.vhd" \
"../../../../EMSC_Different_Approach_Reg_Interface.srcs/sources_1/new/dot_product.vhd" \
"../../../../EMSC_Different_Approach_Reg_Interface.srcs/sources_1/new/dot_product_module.vhd" \
"../../../../EMSC_Different_Approach_Reg_Interface.srcs/sources_1/new/top.vhd" \

# Do not sort compile order
nosort
